<?xml version="1.0" encoding="UTF-8"?>
<!DOCTYPE svg PUBLIC "-//W3C//DTD SVG 1.1//EN" "http://www.w3.org/Graphics/SVG/1.1/DTD/svg11.dtd">
<!-- Creator: CorelDRAW -->
<svg xmlns="http://www.w3.org/2000/svg" xml:space="preserve" width="1.24472in" height="0.344094in" style="shape-rendering:geometricPrecision; text-rendering:geometricPrecision; image-rendering:optimizeQuality; fill-rule:evenodd; clip-rule:evenodd"
viewBox="0 0 0.178677 0.0493938"
 xmlns:xlink="http://www.w3.org/1999/xlink">
 <defs>
  <style type="text/css">
   <![CDATA[
    .fil0 {fill:#EEF1F5}
   ]]>
  </style>
 </defs>
 <g id="Layer_x0020_1">
  <metadata id="CorelCorpID_0Corel-Layer"/>
  <g id="_113025504">
   <rect id="_111992000" class="fil0" width="0.0197575" height="0.0197575"/>
   <rect id="_113026272" class="fil0" y="0.0296363" width="0.0197575" height="0.0197575"/>
   <rect id="_113026896" class="fil0" x="0.0395151" width="0.139162" height="0.0197575"/>
   <rect id="_113026440" class="fil0" x="0.0395151" y="0.0296363" width="0.118545" height="0.0197575"/>
  </g>
 </g>
</svg>
