<?xml version="1.0" encoding="UTF-8" standalone="no"?>
<svg width="42px" height="42px" viewBox="0 0 42 42" version="1.1" xmlns="http://www.w3.org/2000/svg" xmlns:xlink="http://www.w3.org/1999/xlink">
    <defs>
        <rect id="path-1" x="0" y="0" width="42" height="42" rx="2"></rect>
        <mask id="mask-2" maskContentUnits="userSpaceOnUse" maskUnits="objectBoundingBox" x="0" y="0" width="42" height="42" fill="white">
            <use xlink:href="#path-1"></use>
        </mask>
        <mask id="mask-4" maskContentUnits="userSpaceOnUse" maskUnits="objectBoundingBox" x="0" y="0" width="42" height="42" fill="white">
            <use xlink:href="#path-1"></use>
        </mask>
    </defs>
    <g id="Instructions" stroke="none" stroke-width="1" fill="none" fill-rule="evenodd">
        <g id="Artboard" transform="translate(-64.000000, -202.000000)">
            <g id="icn-tracking-clicks" transform="translate(64.000000, 202.000000)">
                <mask id="mask-3" fill="white">
                    <use xlink:href="#path-1"></use>
                </mask>
                <g id="Image-border" stroke="#ECF4F6" mask="url(#mask-2)" stroke-width="2" fill="#ECF4F6">
                    <use mask="url(#mask-4)" xlink:href="#path-1"></use>
                </g>
                <path d="M17.757009,16.7824323 C17.391235,17.0254497 17.191016,17.4634172 17.2093185,17.984116 L17.6741853,30.2655086 C17.6940593,30.7919385 17.927833,31.2101245 18.317918,31.4103435 C18.7078181,31.612781 19.180542,31.5587976 19.6160137,31.2721498 L22.4138108,29.4330191 L23.9485457,31.9250339 C24.2473952,32.4095897 24.7462789,32.6966072 25.2729861,32.7458763 C25.6327517,32.7795234 26.0063829,32.7018762 26.3371232,32.5000857 L28.6076584,31.1084435 C29.002088,30.8669051 29.2771811,30.4838453 29.3830218,30.03155 C29.4886775,29.5792548 29.4097361,29.1130939 29.1613573,28.7201433 L27.5313196,26.1391116 L30.5045624,24.2328714 C30.9545468,23.9452993 31.1971944,23.5301638 31.169833,23.0967257 C31.141085,22.6641195 30.8511095,22.2862362 30.374226,22.0623533 L19.0643485,16.7474911 C18.8434235,16.643037 18.6205574,16.5912722 18.4086913,16.5912722 C18.1725142,16.5912722 17.9496481,16.6554236 17.757009,16.7824323 L17.757009,16.7824323 Z M19.1012029,18.8675955 C19.1130417,18.874334 19.1316798,18.8808347 19.1528776,18.8913786 L28.914289,23.4367213 L25.4462403,25.6410956 L27.6380771,29.1036016 C27.6959912,29.1949287 27.7147093,29.3025867 27.6894319,29.4082629 C27.6649543,29.513067 27.6017607,29.6016193 27.51081,29.6563204 L25.5461289,30.8498346 C25.3519886,30.9655789 25.0945747,30.9073103 24.973147,30.7116549 L22.8542628,27.2836343 L19.5010824,29.4670003 L19.0986431,18.9351394 C19.0984032,18.9073132 19.0994431,18.8855121 19.1012029,18.8675955 Z M23.7298868,14.7499724 L21.4404944,14.9770906 C21.0131572,15.0194269 20.7107027,15.3886211 20.7529465,15.8158659 C20.7954676,16.243388 21.1645694,16.5458425 21.5919066,16.5033214 L23.8813914,16.2763881 C24.3087286,16.2338669 24.6111832,15.8648576 24.5686621,15.4375204 C24.5290989,15.0368975 24.2021485,14.74609 23.8094753,14.74609 C23.7832231,14.74609 23.756786,14.7473842 23.7298868,14.7499724 Z M21.0071488,10.9202064 L19.5497838,12.6985134 C19.2747831,13.0340605 19.3233126,13.5224063 19.6557168,13.7669027 C19.8204399,13.873945 20.0127093,13.9472477 20.1958274,13.92913 C20.3791304,13.9110123 20.5866519,13.8287432 20.7242909,13.6609696 L22.1815636,11.8826626 C22.4563794,11.5471155 22.4080347,11.0587697 22.0754456,10.8142733 C21.9290251,10.6941049 21.7532095,10.6356846 21.5815536,10.6356846 C21.3599816,10.6356846 21.1448802,10.7328361 21.0071488,10.9202064 Z M17.0190378,9.2504206 C16.5915157,9.29284928 16.2890612,9.66185862 16.3313974,10.0892883 L16.5587005,12.3786807 C16.6010368,12.8059254 16.970231,13.1084724 17.3974758,13.0662286 C17.8249054,13.0237075 18.1272675,12.6546982 18.0849313,12.2272685 L17.8578131,9.93787613 C17.8180651,9.53716083 17.4912995,9.24653824 17.0985338,9.24653824 C17.0721892,9.24653824 17.0457522,9.24764749 17.0190378,9.2504206 Z M13.808786,15.7339665 L11.519486,15.9611772 C11.0921488,16.003421 10.7896942,16.3725227 10.8320305,16.7999524 C10.8744592,17.2272896 11.2435609,17.5297442 11.6708982,17.4874079 L13.960383,17.2602897 C14.3878126,17.2179535 14.6901748,16.8487593 14.6478385,16.4215145 C14.6080905,16.0208916 14.281325,15.7300841 13.8884668,15.7299917 C13.8622147,15.7299917 13.8356852,15.7312858 13.808786,15.7339665 Z M14.6796369,18.606915 L13.2222719,20.3853145 C12.9473636,20.7207691 12.9958931,21.2092073 13.3282973,21.4537037 C13.4960709,21.5911579 13.6853823,21.6340487 13.8990047,21.6127882 C14.1126271,21.5916201 14.2592325,21.5154518 14.3967791,21.3477707 L15.8541441,19.5693712 C16.1290524,19.2339166 16.0805228,18.7454784 15.7482111,18.5009819 C15.6016056,18.380906 15.4257901,18.3225781 15.2541342,18.3223933 C15.0323773,18.3223933 14.8173684,18.4196372 14.6796369,18.606915 Z M12.3956983,11.7433597 C12.1207901,12.0789068 12.1692272,12.5674374 12.5016314,12.8119339 L14.249619,14.2722569 C14.4173001,14.4098035 14.6066115,14.4526019 14.8202339,14.4315262 C15.0338563,14.4103581 15.210966,14.3311394 15.3485126,14.1632734 C15.6236057,13.8277264 15.5750762,13.3393806 15.2423946,13.0949766 L13.4640876,11.6376115 C13.3174822,11.5174432 13.1418515,11.4590229 12.9700107,11.4590229 C12.7484387,11.4590229 12.5333373,11.5561744 12.3956983,11.7433597 Z" id="Combined-Shape" fill="#3096DE"></path>
            </g>
        </g>
    </g>
</svg>
