<?xml version="1.0" encoding="UTF-8"?>
<svg width="34px" height="34px" viewBox="0 0 34 34" version="1.1" xmlns="http://www.w3.org/2000/svg" xmlns:xlink="http://www.w3.org/1999/xlink">
    <defs>
        <rect id="path-1" x="0" y="0" width="29.2630118" height="29.2630118" rx="2"></rect>
        <filter x="-12.0%" y="-8.5%" width="123.9%" height="123.9%" filterUnits="objectBoundingBox" id="filter-2">
            <feOffset dx="0" dy="1" in="SourceAlpha" result="shadowOffsetOuter1"></feOffset>
            <feGaussianBlur stdDeviation="1" in="shadowOffsetOuter1" result="shadowBlurOuter1"></feGaussianBlur>
            <feColorMatrix values="0 0 0 0 0   0 0 0 0 0   0 0 0 0 0  0 0 0 0.1 0" type="matrix" in="shadowBlurOuter1"></feColorMatrix>
        </filter>
    </defs>
    <g id="UB-17964-Google-and-Facebook-Insights-in-the-feed" stroke="none" stroke-width="1" fill="none" fill-rule="evenodd">
        <g id="desktop/icon/feed/3-Copy-2" transform="translate(2.000000, 1.000000)">
            <g id="Image-border">
                <use fill="black" fill-opacity="1" filter="url(#filter-2)" xlink:href="#path-1"></use>
                <use fill="#ECF4F6" fill-rule="evenodd" xlink:href="#path-1"></use>
            </g>
            <path d="M8.30335178,13.6487415 L9.53296605,10.3112171 C9.79976375,9.58705189 10.6451098,9 11.4149359,9 L17.6652942,9 C18.4378798,9 19.2799162,9.58555854 19.5472641,10.3112171 L20.7768784,13.6487415 C21.5379722,13.9315848 22.0802301,14.6645014 22.0802301,15.524069 L22.0802301,19.3048239 L20.8235443,19.3048239 L20.8235443,20.6951314 C20.8235443,21.3153826 20.3215255,21.8181956 19.692527,21.8181956 C19.0678834,21.8181956 18.5615098,21.320157 18.5615098,20.6951314 L18.5615098,19.3048239 L10.5187204,19.3048239 L10.5187204,20.6951314 C10.5187204,21.3153826 10.0167016,21.8181956 9.38770311,21.8181956 C8.76305952,21.8181956 8.25668585,21.320157 8.25668585,20.6951314 L8.25668585,19.3048239 L7,19.3048239 L7,15.524069 C7,14.6645014 7.54225796,13.9315848 8.30335178,13.6487415 Z M9.43380582,17.3609323 C10.0839112,17.3609323 10.6109258,16.8339177 10.6109258,16.1838123 C10.6109258,15.5337069 10.0839112,15.0066923 9.43380582,15.0066923 C8.78370041,15.0066923 8.25668585,15.5337069 8.25668585,16.1838123 C8.25668585,16.8339177 8.78370041,17.3609323 9.43380582,17.3609323 Z M19.7386298,17.3609323 C20.3887352,17.3609323 20.9157497,16.8339177 20.9157497,16.1838123 C20.9157497,15.5337069 20.3887352,15.0066923 19.7386298,15.0066923 C19.0885243,15.0066923 18.5615098,15.5337069 18.5615098,16.1838123 C18.5615098,16.8339177 19.0885243,17.3609323 19.7386298,17.3609323 Z M18.7597255,10.6013629 C18.6142029,10.2063729 18.0870208,9.83928637 17.6652942,9.83928637 L11.4149359,9.83928637 C10.9954995,9.83928637 10.4653152,10.2083057 10.3205046,10.6013629 L9.46033101,12.9361198 L19.6198991,12.9361198 L18.7597255,10.6013629 Z" id="Combined-Shape" fill="#3096DE" fill-rule="evenodd"></path>
        </g>
    </g>
</svg>
