<?xml version="1.0" encoding="UTF-8"?>
<svg width="33px" height="34px" viewBox="0 0 33 34" version="1.1" xmlns="http://www.w3.org/2000/svg" xmlns:xlink="http://www.w3.org/1999/xlink">
    <defs>
        <rect id="path-1" x="0.525145238" y="0.204050274" width="29.2630118" height="29.2630118" rx="2"></rect>
        <filter x="-12.0%" y="-8.5%" width="123.9%" height="123.9%" filterUnits="objectBoundingBox" id="filter-3">
            <feOffset dx="0" dy="1" in="SourceAlpha" result="shadowOffsetOuter1"></feOffset>
            <feGaussianBlur stdDeviation="1" in="shadowOffsetOuter1" result="shadowBlurOuter1"></feGaussianBlur>
            <feColorMatrix values="0 0 0 0 0   0 0 0 0 0   0 0 0 0 0  0 0 0 0.1 0" type="matrix" in="shadowBlurOuter1"></feColorMatrix>
        </filter>
    </defs>
    <g id="UB-17964-Google-and-Facebook-Insights-in-the-feed" stroke="none" stroke-width="1" fill="none" fill-rule="evenodd">
        <g id="desktop/icon/feed/8" transform="translate(1.000000, 1.000000)">
            <mask id="mask-2" fill="white">
                <use xlink:href="#path-1"></use>
            </mask>
            <g id="Image-border">
                <use fill="black" fill-opacity="1" filter="url(#filter-3)" xlink:href="#path-1"></use>
                <use fill="#ECF4F6" fill-rule="evenodd" xlink:href="#path-1"></use>
            </g>
            <g id="Group-12" stroke-width="1" fill-rule="evenodd" mask="url(#mask-2)">
                <g transform="translate(7.000000, 5.000000)">
                    <path d="M7.97690661,15.7371179 C3.69106027,15.7371179 0.216695344,12.2627529 0.216695344,7.97690661 C0.216695344,3.69106027 3.69106027,0.216695344 7.97690661,0.216695344 C12.2627529,0.216695344 15.7371179,3.69106027 15.7371179,7.97690661 C15.7371179,12.2627529 12.2627529,15.7371179 7.97690661,15.7371179 Z M7.97690661,14.6560368 C11.6656884,14.6560368 14.6560368,11.6656884 14.6560368,7.97690661 C14.6560368,4.28812487 11.6656884,1.29777643 7.97690661,1.29777643 C4.28812487,1.29777643 1.29777643,4.28812487 1.29777643,7.97690661 C1.29777643,11.6656884 4.28812487,14.6560368 7.97690661,14.6560368 Z" id="Oval-2" fill="#3096DE" fill-rule="nonzero"></path>
                    <path d="M8.09621622,8.14319981 C7.94108108,8.21211873 7.83783784,8.36698359 7.83783784,8.53914576 L7.83783784,17.1475241 C7.83783784,17.285362 7.90675676,17.4231998 8.0272973,17.5091458 C8.14783784,17.595362 8.3027027,17.595362 8.42324324,17.5437404 L10.2654054,16.7688755 L11.1751351,19.0118485 C11.2437838,19.1840106 11.3989189,19.2699566 11.5708108,19.2699566 C11.6227027,19.2699566 11.6743243,19.2526593 11.7432432,19.2356322 L13.327027,18.5813079 C13.4305405,18.5296863 13.5164865,18.4610376 13.5681081,18.3402268 C13.6197297,18.2372539 13.6197297,18.1164431 13.5681081,18.0134701 L12.6586486,15.7704971 L14.5008108,14.9956322 C14.6386486,14.9440106 14.7245946,14.8234701 14.7591892,14.6856322 C14.7935135,14.5477944 14.7418919,14.3929295 14.6386486,14.2896863 L8.57837838,8.22941603 C8.45756757,8.10887549 8.26837838,8.07428089 8.09621622,8.14319981" id="Path" fill="#3096DE" fill-rule="evenodd"></path>
                    <path d="M8.64751672,18.0389021 C8.30986076,18.1836118 7.90798672,18.1584947 7.59263594,17.9332441 C7.29685778,17.721974 7.12030197,17.3806327 7.12030197,17.0218676 L7.12030197,8.41337667 C7.12030197,7.97422517 7.38079089,7.57728967 7.77981449,7.39994585 C8.22015309,7.22329283 8.69732578,7.30893921 9.01408272,7.62569614 L15.0744603,13.6860737 C15.3423759,13.9539893 15.4661323,14.3500096 15.372706,14.7237146 C15.2849612,15.0746939 15.0484829,15.3702918 14.72089,15.492581 L13.4935538,16.0087504 L14.1449579,17.6151208 C14.2742533,17.8955924 14.272532,18.2184292 14.139794,18.4977727 C14.0229932,18.7592142 13.8325983,18.9372607 13.5873751,19.0598723 L13.5431498,19.0800306 L11.9132914,19.753233 L11.8651169,19.7652766 C11.8653516,19.7652179 11.7901163,19.7850167 11.7606323,19.7918207 C11.6835262,19.8096144 11.6116352,19.8198845 11.5290717,19.8198845 C11.0812136,19.8198845 10.6781665,19.5679801 10.5069294,19.1398668 L9.85461614,17.5312545 L8.64751672,18.0389021 Z M14.221704,14.23709 C14.2137816,14.2400609 14.2061386,14.2432823 14.1987767,14.2467254 L14.221704,14.23709 Z M12.9218988,18.1895406 L12.9120001,18.1676368 C12.9150019,18.1750384 12.9183015,18.1823459 12.9218988,18.1895406 Z M12.9218988,17.9123205 C12.9192058,17.9177065 12.9166797,17.9231558 12.9143204,17.9286604 L12.9218988,17.9123205 Z M12.9051976,17.9483302 L12.9105374,17.936817 C12.9086623,17.9405737 12.9068759,17.9444141 12.9051976,17.9483302 Z M11.7604302,18.6350145 L11.7595597,18.6328679 C11.7598531,18.6335817 11.7601433,18.6342972 11.7604302,18.6350145 Z M8.1194146,16.795022 L8.12218201,16.7938582 C8.12125548,16.7942402 8.12033311,16.7946282 8.1194146,16.795022 Z M12.9143204,17.9286604 L12.9105374,17.936817 C12.9111957,17.9354981 12.911865,17.9341894 12.9125443,17.9328914 C12.9131255,17.9314775 12.9137175,17.9300671 12.9143204,17.9286604 Z M12.8105718,17.9205294 L11.7399113,15.2802676 L12.3547921,15.0216729 L13.8644962,14.3872091 L8.47165332,8.99436616 L8.47165332,16.6468842 L10.592526,15.7549284 L10.8497238,16.3891813 L11.6629229,18.3945582 L12.8105718,17.9205294 Z M11.4764223,18.4715911 C11.4897129,18.469823 11.5069734,18.4685332 11.5290717,18.4685332 C11.5330231,18.4685332 11.5370129,18.4686703 11.5410331,18.4689416 L11.537366,18.4542732 C11.527615,18.456711 11.5053115,18.4625237 11.4865698,18.4673998 L11.4764223,18.4715911 Z" id="Shape" fill="#ECF4F6" fill-rule="nonzero"></path>
                </g>
            </g>
        </g>
    </g>
</svg>
