<?xml version="1.0" encoding="UTF-8"?>
<svg width="33px" height="34px" viewBox="0 0 33 34" version="1.1" xmlns="http://www.w3.org/2000/svg" xmlns:xlink="http://www.w3.org/1999/xlink">
    <defs>
        <rect id="path-1" x="0.525145238" y="0.204050274" width="29.2630118" height="29.2630118" rx="2"></rect>
        <filter x="-12.0%" y="-8.5%" width="123.9%" height="123.9%" filterUnits="objectBoundingBox" id="filter-2">
            <feOffset dx="0" dy="1" in="SourceAlpha" result="shadowOffsetOuter1"></feOffset>
            <feGaussianBlur stdDeviation="1" in="shadowOffsetOuter1" result="shadowBlurOuter1"></feGaussianBlur>
            <feColorMatrix values="0 0 0 0 0   0 0 0 0 0   0 0 0 0 0  0 0 0 0.1 0" type="matrix" in="shadowBlurOuter1"></feColorMatrix>
        </filter>
    </defs>
    <g id="UB-17964-Google-and-Facebook-Insights-in-the-feed" stroke="none" stroke-width="1" fill="none" fill-rule="evenodd">
        <g id="desktop/icon/feed/4" transform="translate(1.000000, 1.000000)">
            <g id="Image-border">
                <use fill="black" fill-opacity="1" filter="url(#filter-2)" xlink:href="#path-1"></use>
                <use fill="#ECF4F6" fill-rule="evenodd" xlink:href="#path-1"></use>
            </g>
            <g id="Group-2" stroke-width="1" fill-rule="evenodd" transform="translate(8.000000, 3.000000)">
                <path d="M5.76385817,10.9176751 C5.89066156,10.422343 5.71726092,9.95019587 5.20705116,9.179699 C5.16734929,9.11974294 5.12745146,9.06025181 5.04703623,8.94059532 C4.89780779,8.71547014 4.8215292,8.60135604 4.74200626,8.48806222 C4.27349003,7.82058191 3.91331862,7.55098733 3.53685701,7.61921372 C3.34205503,7.65433678 2.30160838,8.45981863 2.03070463,8.75723698 C0.932324217,9.95701678 0.616697194,11.8773171 1.28026686,13.7085937 C1.79440755,15.1267825 2.72409227,16.519816 3.986223,17.8778103 C5.32756304,19.3213647 6.48536281,20.2790213 7.83692581,20.9697383 C8.79151306,21.4575028 9.54415431,21.6958508 10.429997,21.7220174 C11.463829,21.7529948 12.3577628,21.5330356 13.08399,21.0788414 C13.5136359,20.8102486 14.5697752,19.782524 14.5839036,19.6038306 C14.608023,19.2918983 14.3746271,18.9676857 13.8329165,18.5203719 C13.7493032,18.4513289 13.4203666,18.189738 13.3458571,18.1280272 C13.2800189,18.0737378 13.0193148,17.8521238 12.95429,17.7983427 C12.3536281,17.3015437 11.934725,17.1133032 11.4181818,17.1881802 C11.0963776,17.2348012 10.8935763,17.3792919 10.4754952,17.8135996 L10.4376687,17.8529032 C9.93044873,18.3796942 9.62802269,18.6036631 9.10854347,18.7042764 C8.37041524,18.8470839 7.80012715,18.5591363 6.9175258,17.8669524 C5.92767916,17.0920736 5.11475296,16.2049272 4.42357556,15.167662 C3.8739832,14.3385674 3.62395144,13.6702514 3.84036542,12.9291666 C3.95104421,12.5486165 4.18584134,12.308164 4.64667564,11.9745741 C4.59760919,12.0100924 4.82224363,11.848454 4.87046648,11.8124942 C4.91298441,11.7807885 4.94853346,11.7531053 4.97975446,11.7272523 C5.01200764,11.7005699 5.03237798,11.6842306 5.08442072,11.6431581 C5.12338632,11.6125841 5.25376701,11.5121322 5.26645256,11.5022743 C5.58515515,11.2546109 5.71621027,11.1055941 5.76385817,10.9176751 Z M6.67226153,11.1302305 C6.56280907,11.5619058 6.32196517,11.8357584 5.8554062,12.1983207 C5.83979249,12.2104541 5.71188095,12.3090036 5.67680276,12.3365274 C5.63204039,12.3718626 5.61629541,12.3844919 5.59095621,12.4054544 C5.54655279,12.4422234 5.49898422,12.4792666 5.44471397,12.519736 C5.38905065,12.5612441 5.15355975,12.7306945 5.21028337,12.6896333 C4.90676038,12.9093483 4.77872626,13.0404662 4.74098877,13.1702192 C4.61993277,13.5847621 4.79848969,14.0620312 5.21227433,14.6862537 C5.85052736,15.6440919 6.59769949,16.4594809 7.50941032,17.1731931 C8.17124158,17.692237 8.57098338,17.894073 8.92340112,17.8258899 C9.18841718,17.7745612 9.3707996,17.6394936 9.75044312,17.2452015 L9.78820057,17.2059696 C10.3423217,16.6303419 10.6816567,16.3885744 11.2783704,16.3021264 C12.1321312,16.1783669 12.7774198,16.4683372 13.5652435,17.1199352 C13.6368619,17.1791697 13.8968679,17.4001902 13.9565184,17.4493788 C14.0225203,17.5040421 14.350749,17.76507 14.4433008,17.841494 C15.1944602,18.4617586 15.5695735,18.9828324 15.5163781,19.6707931 C15.4715863,20.2373374 14.2678455,21.4086923 13.5949612,21.8293455 C12.7020266,22.3878012 11.6192859,22.6542178 10.4009815,22.6177129 C9.34908066,22.5866413 8.46734627,22.3074117 7.39695183,21.7604734 C5.93263552,21.0121337 4.69635159,19.9895601 3.2879152,18.4737964 C1.95016863,17.0344429 0.95606795,15.544889 0.396945527,14.002624 C-0.373016168,11.8777336 -0.00167078454,9.61843832 1.32701856,8.16709027 C1.73037678,7.72425029 2.89422965,6.82323115 3.36353172,6.73861554 C4.23476201,6.58072143 4.85719753,7.04662526 5.51789053,7.98789374 C5.60423864,8.11091117 5.68713705,8.23492862 5.83398447,8.45656226 C5.91359426,8.57501257 5.95519604,8.63704443 5.9965828,8.69954494 C6.6339011,9.66199566 6.87798746,10.3266107 6.67226153,11.1302305 Z" id="phone" fill="#3096DE" fill-rule="nonzero"></path>
                <g id="Group" transform="translate(10.368310, 5.548789) rotate(86.000000) translate(-10.368310, -5.548789) translate(4.913765, 0.757122)" fill="#2EA7C8">
                    <path d="M10.055139,4.11033609 L8.27088057,4.27996331 C7.93783149,4.31158288 7.70211084,4.58732204 7.73503392,4.90641728 C7.76817314,5.22571964 8.0558359,5.45161311 8.38888498,5.41985547 L10.1732154,5.25036633 C10.5062645,5.21860869 10.7419852,4.9430076 10.7088459,4.62384332 C10.6780121,4.32463113 10.4232004,4.10743648 10.1171669,4.10743648 C10.0967071,4.10743648 10.0761031,4.10840302 10.055139,4.11033609 L10.055139,4.11033609 Z" id="Clip-8"></path>
                    <path d="M7.93314878,1.25000832 L6.79733831,2.57816805 C6.58301406,2.82877725 6.62083598,3.19350684 6.87989817,3.37611327 C7.0082766,3.45605968 7.15812347,3.51080709 7.3008382,3.49727557 C7.44369703,3.48374405 7.60543079,3.42229992 7.71270098,3.29699532 L8.8484394,1.96883559 C9.06261957,1.71822639 9.02494173,1.3534968 8.76573546,1.17089037 C8.6516213,1.08114052 8.51459786,1.03750829 8.38081631,1.03750829 C8.2081322,1.03750829 8.04049101,1.11006759 7.93314878,1.25000832 L7.93314878,1.25000832 Z" id="Clip-14"></path>
                    <path d="M4.82497886,0.00289961059 C4.4917857,0.0345882121 4.25606504,0.310189295 4.28906017,0.629422614 L4.46621087,2.33929537 C4.499206,2.65839061 4.78694081,2.88435312 5.11991785,2.8528026 C5.45303897,2.82104496 5.68868758,2.54544387 5.65569245,2.22621055 L5.47868584,0.516337801 C5.44770788,0.217056565 5.19304024,0 4.88693478,0 C4.86640288,0 4.84579893,0.00082846017 4.82497886,0.00289961059 L4.82497886,0.00289961059 Z" id="Clip-5"></path>
                    <path d="M2.3230404,4.8452493 L0.53885404,5.01494556 C0.20580496,5.04649609 -0.0299156959,5.32216621 0.00307943252,5.64139953 C0.0361466027,5.96056381 0.323809371,6.18645728 0.656858452,6.15483772 L2.44118889,5.9852105 C2.77431001,5.95359093 3.00995863,5.67785177 2.9769635,5.35875653 C2.94598554,5.05954433 2.6913179,4.84234969 2.3851404,4.84228065 C2.36468054,4.84228065 2.34400455,4.84324719 2.3230404,4.8452493 L2.3230404,4.8452493 Z" id="Clip-11"></path>
                    <path d="M3.00174587,6.99096114 L1.8659354,8.31918991 C1.65168319,8.56973007 1.68950511,8.9345287 1.9485673,9.11713513 C2.07932311,9.21979515 2.22686464,9.25182895 2.39335316,9.23595013 C2.55984168,9.22014035 2.67409992,9.16325275 2.78129807,9.03801719 L3.91710854,7.70978842 C4.13136075,7.45924826 4.09353882,7.09444963 3.83454867,6.9118432 C3.72029043,6.82216238 3.583267,6.77859919 3.44948544,6.77846111 C3.27665724,6.77846111 3.1090881,6.85108945 3.00174587,6.99096114 L3.00174587,6.99096114 Z" id="Clip-17"></path>
                    <path d="M1.22173793,1.8647948 C1.00748572,2.11540401 1.04523561,2.48027167 1.3042978,2.6628781 L2.66660758,3.75354591 C2.79729134,3.85627498 2.94483287,3.88823973 3.11132139,3.87249899 C3.27780991,3.85668921 3.41584193,3.79752334 3.52304008,3.6721497 C3.73743637,3.4215405 3.69961445,3.05681091 3.44033613,2.87427352 L2.05439665,1.78581493 C1.94013842,1.69606508 1.80325906,1.65243285 1.66933342,1.65243285 C1.49664931,1.65243285 1.32900812,1.72499215 1.22173793,1.8647948 L1.22173793,1.8647948 Z" id="Clip-20"></path>
                </g>
            </g>
        </g>
    </g>
</svg>
