<?xml version="1.0" encoding="UTF-8"?>
<!DOCTYPE svg PUBLIC "-//W3C//DTD SVG 1.1//EN" "http://www.w3.org/Graphics/SVG/1.1/DTD/svg11.dtd">
<!-- Creator: CorelDRAW -->
<svg xmlns="http://www.w3.org/2000/svg" xml:space="preserve" width="1.10493in" height="0.209587in" style="shape-rendering:geometricPrecision; text-rendering:geometricPrecision; image-rendering:optimizeQuality; fill-rule:evenodd; clip-rule:evenodd"
viewBox="0 0 0.0526683 0.00999026"
 xmlns:xlink="http://www.w3.org/1999/xlink">
 <defs>
  <style type="text/css">
   <![CDATA[
    .fil0 {fill:none}
    .fil1 {fill:#F9A92F}
   ]]>
  </style>
 </defs>
 <g id="Layer_x0020_1">
  <metadata id="CorelCorpID_0Corel-Layer"/>
  <rect class="fil0" width="0.0526683" height="0.00999026" rx="0.00145251" ry="0.00145251"/>
  <g id="_115715960">
   <polygon id="_114843168" class="fil1" points="0.0164675,0.00070111 0.017734,0.00375852 0.0209824,0.00398203 0.0184663,0.00612965 0.0192582,0.00928933 0.0164371,0.00755945 0.0136767,0.00928933 0.0144503,0.00607297 0.0119523,0.00398203 0.0152506,0.00372268 "/>
   <polygon id="_114843072" class="fil1" points="0.00686397,0.00070111 0.00813051,0.00375852 0.011379,0.00398203 0.00886278,0.00612965 0.00965471,0.00928933 0.00683357,0.00755945 0.00407323,0.00928933 0.00484678,0.00607297 0.00234879,0.00398203 0.00564716,0.00372268 "/>
  </g>
 </g>
</svg>
