<?xml version="1.0" encoding="UTF-8"?>
<!DOCTYPE svg PUBLIC "-//W3C//DTD SVG 1.1//EN" "http://www.w3.org/Graphics/SVG/1.1/DTD/svg11.dtd">
<!-- Creator: CorelDRAW -->
<svg xmlns="http://www.w3.org/2000/svg" xml:space="preserve" width="1.10493in" height="0.209583in" style="shape-rendering:geometricPrecision; text-rendering:geometricPrecision; image-rendering:optimizeQuality; fill-rule:evenodd; clip-rule:evenodd"
viewBox="0 0 0.125885 0.0238778"
 xmlns:xlink="http://www.w3.org/1999/xlink">
 <defs>
  <style type="text/css">
   <![CDATA[
    .fil0 {fill:none}
    .fil1 {fill:#C2C1C1}
   ]]>
  </style>
 </defs>
 <g id="Layer_x0020_1">
  <metadata id="CorelCorpID_0Corel-Layer"/>
  <g id="_132097064">
   <path id="_115853304" class="fil0" d="M0.00347173 0l0.118941 0c0.00191169,4.48543e-007 0.00347128,0.00156003 0.00347128,0.00347217l4.48543e-007 0.0169339c-4.48543e-007,0.00191124 -0.00156003,0.00347083 -0.00347217,0.00347083l-0.118941 8.97087e-007c-0.00191124,-8.97087e-007 -0.00347083,-0.00156048 -0.00347083,-0.00347262l-8.97087e-007 -0.0169334c8.97087e-007,-0.00191169 0.00156048,-0.00347128 0.00347262,-0.00347128z"/>
   <g id="_115716128">
    <polygon id="_114841848" class="fil1" points="0.108221,0.00167576 0.111248,0.00898343 0.119012,0.00951764 0.112998,0.0146503 0.114891,0.0222024 0.108148,0.0180678 0.10155,0.0222024 0.103399,0.0145149 0.0974286,0.00951764 0.105312,0.00889775 "/>
    <polygon id="_115716032" class="fil1" points="0.0852667,0.00167576 0.088294,0.00898343 0.0960583,0.00951764 0.0900442,0.0146503 0.091937,0.0222024 0.0851941,0.0180678 0.0785965,0.0222024 0.0804454,0.0145149 0.0744748,0.00951764 0.0823584,0.00889775 "/>
    <polygon id="_115716848" class="fil1" points="0.062313,0.00167576 0.0653407,0.00898343 0.0731045,0.00951764 0.0670904,0.0146503 0.0689833,0.0222024 0.0622403,0.0180678 0.0556427,0.0222024 0.0574916,0.0145149 0.0515215,0.00951764 0.0594046,0.00889775 "/>
    <polygon id="_115716296" class="fil1" points="0.0393597,0.00167576 0.0423869,0.00898343 0.0501507,0.00951764 0.0441371,0.0146503 0.04603,0.0222024 0.039287,0.0180678 0.0326894,0.0222024 0.0345383,0.0145149 0.0285677,0.00951764 0.0364509,0.00889775 "/>
    <polygon id="_115715816" class="fil1" points="0.0164059,0.00167576 0.0194331,0.00898343 0.0271974,0.00951764 0.0211834,0.0146503 0.0230762,0.0222024 0.0163333,0.0180678 0.00973563,0.0222024 0.0115845,0.0145149 0.00561397,0.00951764 0.0134976,0.00889775 "/>
   </g>
  </g>
 </g>
</svg>
