<?xml version="1.0" encoding="UTF-8"?>
<svg width="54px" height="36px" viewBox="0 0 54 36" version="1.1" xmlns="http://www.w3.org/2000/svg" xmlns:xlink="http://www.w3.org/1999/xlink">
    <!-- Generator: Sketch 53.2 (72643) - https://sketchapp.com -->
    <title>Group 4</title>
    <desc>Created with Sketch.</desc>
    <defs>
        <rect id="path-1" x="0" y="0" width="50" height="32" rx="2"></rect>
        <filter x="-6.0%" y="-9.4%" width="112.0%" height="118.8%" filterUnits="objectBoundingBox" id="filter-2">
            <feOffset dx="0" dy="0" in="SourceAlpha" result="shadowOffsetOuter1"></feOffset>
            <feGaussianBlur stdDeviation="1" in="shadowOffsetOuter1" result="shadowBlurOuter1"></feGaussianBlur>
            <feColorMatrix values="0 0 0 0 0   0 0 0 0 0   0 0 0 0 0  0 0 0 0.07 0" type="matrix" in="shadowBlurOuter1"></feColorMatrix>
        </filter>
        <polygon id="path-3" points="0 0.0149014925 34.1625313 0.0149014925 34.1625313 7.62267937 0 7.62267937"></polygon>
        <polygon id="path-5" points="0 0.0493434729 4.17336085 0.0493434729 4.17336085 6.13251292 0 6.13251292"></polygon>
        <polygon id="path-7" points="0.00741634763 0.0410656631 4.5888 0.0410656631 4.5888 5.81270846 0.00741634763 5.81270846"></polygon>
        <polygon id="path-9" points="0.00293444776 0.0149014925 2.59802937 0.0149014925 2.59802937 1.24018818 0.00293444776 1.24018818"></polygon>
    </defs>
    <g id="Page-1" stroke="none" stroke-width="1" fill="none" fill-rule="evenodd">
        <g id="Group-4" transform="translate(2.000000, 2.000000)">
            <g id="Rectangle-Copy">
                <use fill="black" fill-opacity="1" filter="url(#filter-2)" xlink:href="#path-1"></use>
                <use fill="#FFFFFF" fill-rule="evenodd" xlink:href="#path-1"></use>
            </g>
            <g id="Group-38" transform="translate(8.000000, 12.000000)">
                <g id="Group-37">
                    <g id="Group-3" transform="translate(0.000000, 0.042412)">
                        <mask id="mask-4" fill="white">
                            <use xlink:href="#path-3"></use>
                        </mask>
                        <g id="Clip-2"></g>
                        <path d="M15.9520592,0.43997803 C15.7606897,0.0965559403 15.4814013,-0.0583622687 15.28751,0.0480114627 C14.8635625,0.280646687 14.4256879,0.492935642 14.025067,0.760761313 C13.8228079,0.895963701 13.5411124,0.921926687 13.3569643,1.24018818 C14.2683052,0.959237731 15.1054825,0.701040716 15.9520592,0.43997803 L15.9520592,0.43997803 Z M17.0780389,1.31320549 C16.9822682,1.0504234 16.8058574,0.899631761 16.6883649,0.720355343 C16.4463876,0.658571463 15.0798634,1.06016669 14.6821082,1.31320549 L17.0780389,1.31320549 Z M15.4086706,5.41747773 C16.4074144,5.41747773 17.3710252,5.41891057 18.3345786,5.41615952 C18.5137977,5.41558639 18.6230944,5.3243434 18.6236103,5.13457863 C18.6245846,4.7525846 18.6225786,4.37059057 18.6223494,3.98859654 C18.6222921,3.88600549 18.5818861,3.80473504 18.5016473,3.7452437 C18.2084891,3.67360191 15.704981,3.66070639 15.4086706,3.7320043 L15.4086706,5.41747773 Z M34.1625428,1.78621325 C33.6684437,1.75675415 33.2277034,1.7450049 32.8065643,1.79251773 C32.5240664,2.62115534 32.2374992,3.41574878 31.8654777,4.18833385 C31.3965965,3.4286443 31.2181798,2.56917206 30.873898,1.79079833 L29.6089333,1.79079833 C29.5399279,1.94732131 29.6154097,2.05621684 29.6625213,2.16677445 C29.9651362,2.87717445 30.2709607,3.58619893 30.5748939,4.29602579 C30.7284939,4.65503713 30.8606586,5.02774639 31.2440282,5.25533803 L31.2440282,7.50030519 C31.6785213,7.53337504 32.0770789,7.55882221 32.5045225,7.47990161 L32.5045225,5.23539296 C32.7579052,5.07634818 32.9191279,4.87426101 32.9989082,4.62403057 C33.1965249,4.00430042 33.5626431,3.45879116 33.7666789,2.84232788 C33.8787267,2.50394937 34.090901,2.20099057 34.1625428,1.78621325 L34.1625428,1.78621325 Z M21.4506527,5.34297027 C21.9579339,5.35947654 22.4047494,5.36073743 22.8489285,5.2897834 C23.8777046,5.12546579 24.4503804,4.46555893 24.4522144,3.42927475 C24.4539339,2.42382519 23.8888807,1.77423475 22.877184,1.61358519 C22.1251171,1.494144 21.3742539,1.544064 20.6233906,1.62229684 C20.2119374,1.66516728 20.1353094,1.74798519 20.1347936,2.16299176 C20.1329022,3.77642221 20.1324437,5.38979534 20.1328449,7.0032831 C20.1328449,7.11521624 20.1116962,7.23402699 20.2256927,7.35736549 C20.6045344,7.37157922 21.0075052,7.38653803 21.4506527,7.34676251 L21.4506527,5.34297027 Z M2.86327594,6.393984 C2.70245445,6.40349803 2.58031952,6.41518997 2.45801266,6.41725325 C1.8966849,6.4268246 1.61326997,6.27385504 1.49589206,5.73172728 C1.32555654,4.94567355 1.33140251,4.1373249 1.51188251,3.35064072 C1.5988843,2.97134042 1.88659773,2.75320549 2.30681982,2.73939296 C2.79421325,2.72328788 3.27919952,2.7600831 3.76527475,2.77383833 C3.88632072,2.77727713 4.01263952,2.81453087 4.16320191,2.71979176 C4.15918997,2.41442579 4.2024043,2.08877087 4.13620728,1.75274221 C3.37777863,1.55930937 2.63321982,1.47895594 1.87926161,1.58980012 C0.944708776,1.7271231 0.389570866,2.28615833 0.152522507,3.18999116 C-0.0500804776,3.96251893 -0.0227992836,4.74954699 0.0729714627,5.52178818 C0.192240716,6.48333564 0.660147582,7.24130579 1.66542519,7.51062161 C2.48793027,7.73093445 3.30183833,7.59412728 4.12245206,7.37811296 L4.12245206,4.431744 C3.68858937,4.4022849 3.29536191,4.38027654 2.86327594,4.45014161 L2.86327594,6.393984 Z M29.3933774,7.32057027 C29.4345858,7.19046878 29.3849524,7.06105504 29.3565249,6.93439236 C29.2543924,6.47875057 29.1434909,6.02511475 29.0372318,5.57044728 C28.8006992,4.55834937 28.5641094,3.54630878 28.3294109,2.53380967 C28.247338,2.1797846 28.1174658,1.85968907 27.7722097,1.67748967 C26.906433,1.22047236 25.9705046,1.64613922 25.7530001,2.59077922 C25.4841428,3.7584831 25.206058,4.92406639 24.9376592,6.0918849 C24.8445249,6.49732012 24.7204986,6.89753982 24.6737882,7.34899773 C25.1133822,7.38223952 25.5269559,7.37369982 25.946261,7.35713624 C26.1199207,6.90092131 26.1426741,6.42756967 26.2891673,5.98075415 L27.8114694,5.98075415 C27.9434049,6.43782878 27.9759589,6.90785624 28.1395888,7.3292246 C28.4341225,7.38877325 29.1666455,7.38223952 29.3933774,7.32057027 L29.3933774,7.32057027 Z M5.02462281,4.71000072 C5.07844012,5.1822634 4.98633743,5.72909087 5.20407116,6.27815355 C5.48697027,6.99147654 6.21318878,7.61710997 7.20425266,7.6086849 C8.29423952,7.59945743 9.05473146,6.89811296 9.22403534,6.02872549 C9.4192449,5.02631355 9.43913266,4.01599236 9.20128191,3.02022878 C9.05582042,2.41150281 8.69428728,1.94709206 8.08779654,1.69863833 C6.74826699,1.14986221 5.42134639,1.82988609 5.10893087,3.23733206 C5.00662639,3.69801743 5.02903594,4.16781564 5.02462281,4.71000072 L5.02462281,4.71000072 Z M17.9915004,1.78185743 C17.7389774,1.68711833 17.4840473,1.70878281 17.2284294,1.76632549 C17.0636533,1.76638281 16.8989344,1.76644012 16.7341583,1.76649743 C16.6579888,1.71073146 16.5696688,1.72781087 16.4854753,1.72781087 C14.8479733,1.72723773 13.2105285,1.7275243 11.5730264,1.72861325 C11.488833,1.72867057 11.4003983,1.71159116 11.3252604,1.76993624 C11.079615,1.8367637 11.0528497,2.02349087 11.0533082,2.23921863 C11.0566897,3.77630758 11.0616186,5.31351116 11.0504998,6.85054281 C11.0482073,7.16645445 11.1417428,7.40596728 11.4131792,7.5933249 L11.5416759,7.5933249 C13.5656998,7.59389803 15.5896664,7.59223594 17.613633,7.59871236 C17.8232855,7.59940012 18.0062873,7.57005564 18.1567924,7.41101087 L18.1567924,5.97846161 L15.2732962,5.97846161 C14.9662682,5.66570221 14.9440879,5.66667654 14.9276389,5.29826579 C14.9046562,4.78393504 14.9019625,4.26725445 14.9228819,3.75298101 C14.9376115,3.39144788 15.0853655,3.28381325 15.4667291,3.28266699 C16.1541464,3.28054639 16.8415637,3.28547534 17.5289237,3.279744 C17.734335,3.2780246 17.9394598,3.25039952 18.155073,3.23389325 L18.155073,1.91579893 C18.1225762,1.88914818 18.057067,1.83550281 17.9915004,1.78185743 L17.9915004,1.78185743 Z" id="Fill-1" fill="#FEFEFE" mask="url(#mask-4)"></path>
                    </g>
                    <path d="M16.7341297,1.80888072 C16.8989058,1.8088234 17.0636819,1.80876609 17.228458,1.8088234 C17.48207,1.85180848 17.7368855,1.83163415 17.9914718,1.82424072 C18.0570383,1.87788609 18.1226049,1.93153146 18.1551016,1.95818221 L18.1551016,3.27633385 C17.9394312,3.29284012 17.7343064,3.32040788 17.528895,3.32212728 C16.8415924,3.32791594 16.1541177,3.32292967 15.4667577,3.32505027 C15.0853941,3.32625385 14.9376401,3.43383116 14.9229106,3.7953643 C14.9019339,4.30969504 14.9046849,4.82631833 14.9276103,5.34064907 C14.9441165,5.70911713 14.9662968,5.70808549 15.2732676,6.0208449 L18.1567637,6.0208449 L18.1567637,7.45339415 C18.0062586,7.61249624 17.8233141,7.6417834 17.6136616,7.64115296 C15.589695,7.63461922 13.5656712,7.63633863 11.5417046,7.63570818 L11.4131506,7.63570818 C11.1417715,7.44835057 11.0481786,7.20889504 11.0504712,6.89292609 C11.06159,5.35595176 11.056661,3.81869087 11.0532795,2.28165922 C11.052821,2.06593146 11.0795864,1.8792043 11.3253464,1.81243415 C11.4106288,1.81896788 11.4959112,1.83106101 11.5811362,1.83111833 C13.2041953,1.83214997 14.8272544,1.83220728 16.4503136,1.83077445 C16.544938,1.83071713 16.6395625,1.8165034 16.7341297,1.80888072" id="Fill-4" fill="#52A5C9"></path>
                    <path d="M8.09762579,4.78912191 C8.07934281,4.2352449 8.12989325,3.79330101 7.99388848,3.36557087 C7.86722579,2.96718519 7.60564728,2.77828012 7.18364848,2.77805087 C6.77248191,2.77787893 6.49881027,2.94557803 6.40498818,3.35416549 C6.21510878,4.1810837 6.22691534,5.02221564 6.39776669,5.84953504 C6.48717564,6.28276728 6.84269087,6.47877922 7.28583833,6.43327236 C7.73666579,6.38702042 7.99956251,6.10996728 8.05624549,5.58686758 C8.08908609,5.28408072 8.08862758,4.9776831 8.09762579,4.78912191 M5.02459415,4.752384 C5.02900728,4.21019893 5.00659773,3.74045803 5.10890221,3.27971534 C5.42131773,1.87232669 6.74829564,1.19224549 8.08782519,1.74102161 C8.69425863,1.98953266 9.05584907,2.4539434 9.20125325,3.06261206 C9.43916131,4.05837564 9.41921624,5.06875415 9.22400669,6.07110878 C9.05476012,6.94049624 8.29421087,7.64184072 7.20428131,7.65112549 C6.21321743,7.65949325 5.48699893,7.03385982 5.20409982,6.32059415 C4.98630878,5.77153146 5.07846878,5.224704 5.02459415,4.752384" id="Fill-6" fill="#070707"></path>
                    <path d="M27.0499286,2.74008072 C26.7820456,3.45019415 26.6526319,4.1753237 26.4985161,4.91839236 L27.6039202,4.91839236 C27.4216062,4.17939296 27.3230271,3.44417624 27.0499286,2.74008072 M29.3934176,7.36298221 C29.1666856,7.42465146 28.4341053,7.43118519 28.1396289,7.37163654 C27.9759417,6.95021087 27.9433877,6.48024072 27.8114522,6.02316609 L26.2892074,6.02316609 C26.142657,6.46998161 26.1199035,6.94333325 25.9462438,7.39954818 C25.5269961,7.41611176 25.113365,7.42465146 24.673771,7.39140967 C24.7204814,6.93995176 24.844565,6.53973206 24.9376993,6.13429684 C25.2060408,4.96647833 25.4841829,3.80089504 25.7529829,2.63319116 C25.9704874,1.68855116 26.9064158,1.2628843 27.7722498,1.71990161 C28.1174486,1.90210101 28.2473781,2.22219654 28.3293937,2.57622161 C28.5640922,3.58872072 28.800682,4.60076131 29.0372146,5.61285922 C29.1434737,6.06752669 29.2543752,6.52116251 29.3565077,6.9768043 C29.3849352,7.10346699 29.4345686,7.23288072 29.3934176,7.36298221" id="Fill-8" fill="#070707"></path>
                    <g id="Group-12" transform="translate(0.000000, 1.532561)">
                        <mask id="mask-6" fill="white">
                            <use xlink:href="#path-5"></use>
                        </mask>
                        <g id="Clip-11"></g>
                        <path d="M2.86329887,4.90381755 L2.86329887,2.95997516 C3.29538484,2.89011009 3.6886123,2.91211845 4.12241767,2.94163487 L4.12241767,5.88794651 C3.30180394,6.10396084 2.48789588,6.240768 1.66544812,6.02045516 C0.660113194,5.75113934 0.192263642,4.99322651 0.0729943881,4.03162173 C-0.0227763582,3.25943785 -0.0501148657,2.47235248 0.152545433,1.69982472 C0.389536478,0.796049194 0.944731701,0.236956657 1.87928454,0.0996336716 C2.63324275,-0.0112105075 3.37774424,0.0691429254 4.13623021,0.262575761 C4.20236991,0.598604418 4.15915558,0.924259343 4.16316752,1.22962531 C4.01260513,1.32436442 3.88634364,1.28711069 3.76529767,1.28367188 C3.27922245,1.26997397 2.79423618,1.23317875 2.30684275,1.24922651 C1.88662066,1.26303904 1.59884991,1.48117397 1.51184812,1.86047427 C1.33142543,2.64715845 1.32557946,3.4555071 1.49585767,4.24156084 C1.6132929,4.7836886 1.89665051,4.93665815 2.45803558,4.92708681 C2.58034245,4.92502352 2.70247737,4.91333158 2.86329887,4.90381755" id="Fill-10" fill="#070707" mask="url(#mask-6)"></path>
                    </g>
                    <path d="M21.4869435,4.27537003 C21.8886534,4.30717899 22.2681829,4.34397421 22.6387716,4.22252704 C22.9713614,4.11345958 23.120491,3.86322913 23.1138999,3.46214973 C23.1075955,3.0822763 22.9483787,2.85537242 22.6087393,2.75593361 C22.2443405,2.64933063 21.8759298,2.69082555 21.4869435,2.71552764 L21.4869435,4.27537003 Z M21.4506641,5.38535928 L21.4506641,7.38915152 C21.0075167,7.42892704 20.6045459,7.41402555 20.2257041,7.39981182 C20.1117077,7.276416 20.1328564,7.15760525 20.1328564,7.04567212 C20.1324552,5.43224167 20.1329137,3.81881122 20.134805,2.20543809 C20.1353208,1.79043152 20.2119489,1.7075563 20.623402,1.66468585 C21.3742653,1.58645301 22.1251286,1.53653301 22.8771955,1.65597421 C23.8888922,1.81662376 24.4539453,2.46627152 24.4521686,3.47166376 C24.4503919,4.50800525 23.8777161,5.16785481 22.8489399,5.33217242 C22.4047608,5.40318376 21.9579453,5.40186555 21.4506641,5.38535928 L21.4506641,5.38535928 Z" id="Fill-13" fill="#070707"></path>
                    <g id="Group-17" transform="translate(29.573731, 1.761815)">
                        <mask id="mask-8" fill="white">
                            <use xlink:href="#path-7"></use>
                        </mask>
                        <g id="Clip-16"></g>
                        <path d="M4.58883439,0.0668217313 C4.5171926,0.481599045 4.30501827,0.784557851 4.19297051,1.12293636 C3.98887737,1.73939964 3.62281648,2.2849089 3.42514245,2.90463904 C3.34541946,3.15486949 3.18413946,3.35689934 2.93075678,3.51600143 L2.93075678,5.76051009 C2.50331319,5.83943069 2.10475558,5.81392621 1.67026245,5.78091367 L1.67026245,3.53588919 C1.28695021,3.30835487 1.15478543,2.93564561 1.00112812,2.57663427 C0.697252299,1.8668074 0.391427821,1.15778293 0.0887555821,0.447382925 C0.0416439403,0.336768 -0.0337805373,0.227929791 0.0352248358,0.071406806 L1.3001323,0.071406806 C1.6444714,0.849780537 1.82283081,1.70925278 2.29176931,2.46894233 C2.66373349,1.69635725 2.95035797,0.901706507 3.23285588,0.0730688955 C3.65393767,0.0256133731 4.09473528,0.0373626269 4.58883439,0.0668217313" id="Fill-15" fill="#070707" mask="url(#mask-8)"></path>
                    </g>
                    <path d="M15.9660208,4.65826388 C16.0474632,4.82493134 16.1723491,4.90935403 16.3584459,4.84969075 C16.4698059,4.81398448 16.5293545,4.71775522 16.520127,4.60679642 C16.5056841,4.43199045 16.3991957,4.33570388 16.2204924,4.32664836 C16.0541115,4.37679761 15.9643587,4.48242627 15.9660208,4.65826388 M15.4086476,5.45984955 L15.4086476,3.77443343 C15.7050154,3.70307821 18.2084661,3.71603104 18.5016817,3.78767284 C18.5818632,3.84716418 18.6222691,3.92843463 18.6223264,4.03102567 C18.6225557,4.4130197 18.6245617,4.79501373 18.6236447,5.17700776 C18.6231288,5.36671522 18.5138321,5.45801552 18.334613,5.45858866 C17.3710023,5.4613397 16.4073915,5.45984955 15.4086476,5.45984955" id="Fill-18" fill="#52A5C9"></path>
                    <path d="M17.0780676,1.35563463 L14.6821368,1.35563463 C15.0798921,1.10259582 16.4464162,0.701000597 16.6883936,0.762727164 C16.8058288,0.942060896 16.9822395,1.09285254 17.0780676,1.35563463" id="Fill-20" fill="#52A5C9"></path>
                    <g id="Group-24" transform="translate(13.354030, 0.042412)">
                        <mask id="mask-10" fill="white">
                            <use xlink:href="#path-9"></use>
                        </mask>
                        <g id="Clip-23"></g>
                        <path d="M2.59802937,0.43997803 C1.75145266,0.701040716 0.914275343,0.959237731 0.00293444776,1.24018818 C0.187082507,0.921926687 0.46877803,0.895963701 0.671037134,0.760761313 C1.07165803,0.492935642 1.50953266,0.280646687 1.93348012,0.0480114627 C2.12737146,-0.0583622687 2.40665982,0.0965559403 2.59802937,0.43997803" id="Fill-22" fill="#52A5C9" mask="url(#mask-10)"></path>
                    </g>
                    <path d="M16.7341297,1.8410633 C16.6395625,1.85465326 16.544938,1.87999394 16.4503136,1.88009612 C14.8272544,1.88265063 13.2041953,1.88254845 11.5811362,1.88070921 C11.4959112,1.88060703 11.4106288,1.85904701 11.3253464,1.84739847 C11.4003697,1.74317471 11.4888616,1.77372658 11.573055,1.7736244 C13.2104998,1.77168297 14.8479446,1.77117207 16.4854467,1.77209169 C16.5696401,1.77219387 16.6579601,1.74174419 16.7341297,1.8410633" id="Fill-25" fill="#AACECE"></path>
                    <path d="M17.9915004,1.85680615 C17.7369141,1.86791173 17.4820413,1.89821531 17.2284867,1.83364801 C17.4840473,1.74712782 17.7389774,1.71449981 17.9915004,1.85680615" id="Fill-27" fill="#AACECE"></path>
                    <path d="M8.09762579,4.78912191 C8.08862758,4.9776831 8.08908609,5.28408072 8.05624549,5.58686758 C7.99956251,6.10996728 7.73666579,6.38702042 7.28583833,6.43327236 C6.84269087,6.47877922 6.48717564,6.28276728 6.39776669,5.84953504 C6.22691534,5.02221564 6.21510878,4.1810837 6.40498818,3.35416549 C6.49881027,2.94557803 6.77248191,2.77787893 7.18364848,2.77805087 C7.60564728,2.77828012 7.86722579,2.96718519 7.99388848,3.36557087 C8.12989325,3.79330101 8.07934281,4.2352449 8.09762579,4.78912191" id="Fill-29" fill="#FEFEFE"></path>
                    <path d="M27.0499286,2.74008072 C27.3230271,3.44417624 27.4216062,4.17939296 27.6039202,4.91839236 L26.4985161,4.91839236 C26.6526319,4.1753237 26.7820456,3.45019415 27.0499286,2.74008072" id="Fill-31" fill="#FEFEFE"></path>
                    <path d="M21.4869435,4.27537003 L21.4869435,2.71552764 C21.8759298,2.69082555 22.2443405,2.64933063 22.6087393,2.75593361 C22.9483787,2.85537242 23.1075955,3.0822763 23.1138999,3.46214973 C23.120491,3.86322913 22.9713614,4.11345958 22.6387716,4.22252704 C22.2681829,4.34397421 21.8886534,4.30717899 21.4869435,4.27537003" id="Fill-33" fill="#FEFEFE"></path>
                    <path d="M15.9660208,4.65826388 C15.9643587,4.48242627 16.0541115,4.37679761 16.2204924,4.32664836 C16.3991957,4.33570388 16.5056841,4.43199045 16.520127,4.60679642 C16.5293545,4.71775522 16.4698059,4.81398448 16.3584459,4.84969075 C16.1723491,4.90935403 16.0474632,4.82493134 15.9660208,4.65826388" id="Fill-35" fill="#FEFEFE"></path>
                </g>
            </g>
        </g>
    </g>
</svg>