<?xml version="1.0" encoding="UTF-8"?>
<svg width="54px" height="36px" viewBox="0 0 54 36" version="1.1" xmlns="http://www.w3.org/2000/svg" xmlns:xlink="http://www.w3.org/1999/xlink">
    <!-- Generator: Sketch 53.2 (72643) - https://sketchapp.com -->
    <title>Group 11</title>
    <desc>Created with Sketch.</desc>
    <defs>
        <rect id="path-1" x="0" y="0" width="50" height="32" rx="2"></rect>
        <filter x="-6.0%" y="-9.4%" width="112.0%" height="118.8%" filterUnits="objectBoundingBox" id="filter-2">
            <feOffset dx="0" dy="0" in="SourceAlpha" result="shadowOffsetOuter1"></feOffset>
            <feGaussianBlur stdDeviation="1" in="shadowOffsetOuter1" result="shadowBlurOuter1"></feGaussianBlur>
            <feColorMatrix values="0 0 0 0 0   0 0 0 0 0   0 0 0 0 0  0 0 0 0.07 0" type="matrix" in="shadowBlurOuter1"></feColorMatrix>
        </filter>
        <polygon id="path-3" points="5.32926611e-05 0.02359375 20.8474863 0.02359375 20.8474863 8.05176558 5.32926611e-05 8.05176558"></polygon>
        <polygon id="path-5" points="0.02275 0.02359375 0.547138923 0.02359375 0.547138923 2.539625 0.02275 2.539625"></polygon>
        <polygon id="path-7" points="0.141 0.145209181 5.16328125 0.145209181 5.16328125 7.18740625 0.141 7.18740625"></polygon>
        <polygon id="path-9" points="0.141 0.145209181 5.16328125 0.145209181 5.16328125 7.18740625 0.141 7.18740625"></polygon>
    </defs>
    <g id="Page-1" stroke="none" stroke-width="1" fill="none" fill-rule="evenodd">
        <g id="Group-11" transform="translate(2.000000, 2.000000)">
            <g id="Rectangle-Copy-3">
                <use fill="black" fill-opacity="1" filter="url(#filter-2)" xlink:href="#path-1"></use>
                <use fill="#FFFFFF" fill-rule="evenodd" xlink:href="#path-1"></use>
            </g>
            <g id="Group-44" transform="translate(6.000000, 11.000000)">
                <g id="Group-43">
                    <g id="Group-3" transform="translate(0.000000, 0.132703)">
                        <mask id="mask-4" fill="white">
                            <use xlink:href="#path-3"></use>
                        </mask>
                        <g id="Clip-2"></g>
                        <path d="M16.58525,0.02353125 L16.58525,2.539625 C16.73025,2.44009375 16.8586875,2.34259375 16.9966563,2.260875 C17.078375,2.21228125 17.1104063,2.16040625 17.109625,2.063375 C17.1050938,1.42415625 17.1075938,0.7849375 17.1066563,0.1455625 C17.1066563,0.10571875 17.1207188,0.06134375 17.0804063,0.02353125 L16.58525,0.02353125 Z M15.6880625,3.30025 C15.8447813,3.13415625 15.963375,2.974 16.1141563,2.8468125 C16.1849375,2.787125 16.2113438,2.7243125 16.2110313,2.63196875 C16.20775,1.80915625 16.2093125,0.98634375 16.2085313,0.16353125 C16.2085313,0.11790625 16.2218125,0.0686875 16.1893125,0.0311875 L15.6880625,0.0311875 L15.6880625,3.30025 Z M7.8199375,7.8755625 C7.84571875,7.803375 7.83540625,7.74509375 7.83540625,7.68821875 C7.8361875,6.76446875 7.83571875,5.8405625 7.8365,4.9168125 C7.8365,4.83821875 7.83759375,4.759 7.8468125,4.6811875 C7.9074375,4.1724375 8.263375,3.80728125 8.76978125,3.7265 C9.00759375,3.68853125 9.23790625,3.71571875 9.46665625,3.8015 C9.54478125,3.6461875 9.61915625,3.49853125 9.692125,3.35321875 C9.6511875,3.30446875 9.598375,3.29025 9.549625,3.27540625 C8.38446875,2.91728125 7.324,3.668375 7.314,4.81540625 C7.30540625,5.79696875 7.312125,6.77853125 7.31275,7.76009375 C7.31275,7.79540625 7.3018125,7.8336875 7.33775,7.873375 C7.49103125,7.8868125 7.6518125,7.88165625 7.8199375,7.8755625 L7.8199375,7.8755625 Z M6.9174375,7.8718125 C6.94603125,7.8080625 6.9336875,7.749625 6.9336875,7.69290625 C6.93446875,6.74275 6.93025,5.79259375 6.93525,4.8424375 C6.9415,3.6293125 7.79103125,2.7999375 9.00384375,2.810875 C9.32384375,2.8136875 9.62384375,2.89025 9.9055625,3.03821875 C10.0275938,2.9036875 10.1422812,2.777125 10.2557187,2.65196875 C10.2179062,2.59853125 10.168375,2.5774375 10.1230625,2.55228125 C9.86228125,2.40665625 9.57946875,2.33259375 9.28446875,2.30228125 C7.6111875,2.13134375 6.40540625,3.3065 6.413375,4.8399375 C6.41853125,5.79540625 6.414,6.75071875 6.41525,7.70603125 C6.41540625,7.76165625 6.39696875,7.8215 6.43478125,7.8718125 L6.9174375,7.8718125 Z M13.03275,6.20509375 C12.8907188,6.28525 12.7694688,6.3536875 12.6349375,6.39478125 C11.7875938,6.65275 11.0774375,6.03353125 11.1066563,5.2865 C11.11275,5.1293125 11.107125,4.97165625 11.1075938,4.8143125 C11.1080625,4.5980625 11.172125,4.4005625 11.2897813,4.2211875 C11.5635312,3.804 12.0815,3.61446875 12.558375,3.754 C13.052125,3.8986875 13.3785313,4.32696875 13.3794688,4.84071875 C13.3813438,5.79571875 13.3794688,6.75071875 13.380875,7.705875 C13.380875,7.7611875 13.362125,7.820875 13.3979063,7.86853125 L13.908375,7.86853125 C13.908375,7.60525 13.909,7.354 13.9082188,7.10275 C13.905875,6.320875 13.9211875,5.53853125 13.8957188,4.7574375 C13.8675938,3.898375 13.1980625,3.23275 12.3644688,3.19040625 C11.4860313,3.145875 10.7294688,3.7524375 10.599,4.6074375 C10.5647813,4.8318125 10.5847813,5.0580625 10.584,5.283375 C10.5810313,6.07853125 11.0986875,6.74665625 11.8724375,6.93571875 C12.2291562,7.02275 12.5813438,6.99446875 12.9144688,6.8268125 C12.9686875,6.79946875 13.0332187,6.775875 13.0329062,6.69603125 C13.0322813,6.54040625 13.03275,6.38509375 13.03275,6.20509375 L13.03275,6.20509375 Z M17.0654062,5.00946875 C16.9449375,5.15665625 16.8457187,5.2915 16.7315,5.412125 C16.6544687,5.493375 16.650875,5.56884375 16.68275,5.66790625 C16.7424375,5.8536875 16.81525,6.03353125 16.9243125,6.19509375 C17.2936875,6.74196875 17.798375,7.04571875 18.4697813,6.9649375 C19.1413438,6.8843125 19.6011875,6.50478125 19.8461875,5.87040625 C19.9832187,5.51603125 19.9375937,5.1461875 19.9394687,4.78071875 C19.9405625,4.5843125 19.889625,4.3965 19.81275,4.21634375 C19.4668125,3.4065 18.489,2.90946875 17.619,3.35228125 C17.4025938,3.4624375 17.2024375,3.597125 17.0305625,3.76853125 C16.3797813,4.41759375 15.7741563,5.10665625 15.2111875,5.83290625 C15.1855625,5.86571875 15.1510313,5.89478125 15.150875,5.94040625 C15.1499375,6.188375 15.1504063,6.43634375 15.1504063,6.68634375 C15.2135313,6.680875 15.22525,6.6405625 15.2460313,6.61353125 C15.6650938,6.0686875 16.10525,5.5411875 16.558375,5.0243125 C16.869625,4.66946875 17.1705625,4.3030625 17.5341563,3.99978125 C17.9093125,3.687125 18.333375,3.6093125 18.7807187,3.82884375 C19.2063438,4.03759375 19.4119687,4.39525 19.4143125,4.86884375 C19.4150938,5.015875 19.413375,5.16275 19.4147813,5.309625 C19.4160312,5.425875 19.4011875,5.53915625 19.368375,5.650875 C19.1554062,6.37165625 18.233375,6.73290625 17.6404063,6.19384375 C17.4950938,6.06165625 17.3794688,5.908375 17.2863438,5.73571875 C17.1682188,5.5161875 17.1107188,5.27790625 17.0654062,5.00946875 L17.0654062,5.00946875 Z M5.20134375,3.06759375 C5.20134375,2.91696875 5.1930625,2.76603125 5.204,2.61665625 C5.2118125,2.508375 5.169,2.45853125 5.07509375,2.41634375 C4.41759375,2.12025 3.7299375,2.05275 3.02728125,2.16821875 C1.94415625,2.345875 0.84603125,3.29853125 0.90446875,4.71025 C0.9465,5.72446875 1.40009375,6.47025 2.3099375,6.924625 C2.85603125,7.19728125 3.4374375,7.1805625 4.0205625,7.083375 C4.3124375,7.0349375 4.58946875,6.9405625 4.83509375,6.767125 C4.905875,6.717125 4.937125,6.66275 4.93603125,6.57228125 C4.930875,6.12603125 4.93384375,5.6799375 4.933375,5.23353125 C4.933375,5.19790625 4.9424375,5.15946875 4.91228125,5.1293125 C4.66509375,5.10821875 3.30415625,5.1165 3.17228125,5.14275 C3.184,5.30415625 3.15775,5.469 3.19040625,5.6518125 L4.43978125,5.6518125 C4.43978125,5.89071875 4.43759375,6.1105625 4.44103125,6.33025 C4.442125,6.39978125 4.415875,6.432125 4.350875,6.454625 C3.89071875,6.6136875 3.41634375,6.67915625 2.9405625,6.58025 C2.204,6.42728125 1.71040625,5.97321875 1.51290625,5.24790625 C1.30696875,4.49259375 1.4355625,3.79821875 2.02853125,3.23946875 C2.4568125,2.83603125 2.97259375,2.644 3.55978125,2.64540625 C4.1280625,2.64696875 4.68321875,2.7018125 5.1561875,3.067125 C5.16228125,3.0718125 5.1755625,3.06759375 5.20134375,3.06759375 L5.20134375,3.06759375 Z M16.3457187,5.88196875 C16.2419687,6.00696875 16.1541562,6.12321875 16.0550937,6.22884375 C15.9907187,6.29759375 15.9894687,6.3599375 16.0211875,6.442125 C16.1016562,6.6499375 16.2074375,6.84321875 16.3557187,7.008375 C17.0113437,7.738375 17.8368125,8.01509375 18.7863437,7.82134375 C19.750875,7.62446875 20.3918125,7.01884375 20.7200937,6.0899375 C20.8738437,5.65446875 20.8507187,5.20071875 20.8386875,4.74946875 C20.8282187,4.36509375 20.7293125,4.0030625 20.5475937,3.6649375 C19.8025937,2.2793125 18.0697812,1.86446875 16.8430625,2.76321875 C16.2472813,3.19946875 15.7668125,3.74290625 15.304,4.309 C15.1910312,4.447125 15.128375,4.584 15.1472812,4.76384375 C15.1643125,4.925875 15.13525,5.090875 15.1641562,5.27946875 C15.2560312,5.16415625 15.3299375,5.0699375 15.4050937,4.9768125 C15.8932187,4.37134375 16.3900937,3.77196875 17.0000937,3.28415625 C17.6404062,2.772125 18.3599375,2.6461875 19.108375,3.000875 C19.8786875,3.365875 20.2930625,3.99478125 20.314625,4.860875 C20.3188437,5.02884375 20.3166562,5.1968125 20.3150937,5.36478125 C20.3049375,6.53228125 19.2179062,7.49321875 18.0616562,7.339 C17.1988437,7.224 16.6366562,6.72978125 16.3457187,5.88196875 L16.3457187,5.88196875 Z M13.0330625,7.19775 C12.9732188,7.215875 12.933375,7.22634375 12.8944688,7.2399375 C11.874,7.5974375 10.8665,7.0668125 10.4354062,6.23978125 C10.1299375,5.65353125 10.1397813,5.025875 10.262125,4.41040625 C10.4650937,3.389625 11.4611875,2.70603125 12.4980625,2.82540625 C13.5174375,2.94275 14.2769688,3.8093125 14.2774375,4.8568125 C14.2779063,5.8068125 14.2772813,6.75665625 14.278375,7.7065 C14.2785313,7.7618125 14.2586875,7.822125 14.2968125,7.8668125 L14.7979063,7.8668125 C14.7997813,7.827125 14.8019688,7.80103125 14.8019688,7.77509375 C14.802125,6.799 14.7999375,5.82290625 14.8029063,4.84665625 C14.804625,4.33196875 14.6565,3.86446875 14.3738438,3.4386875 C13.772125,2.532125 12.6754063,2.098375 11.6410313,2.3543125 C10.5857188,2.6155625 9.79790625,3.5286875 9.6918125,4.61134375 C9.66978125,4.8368125 9.67978125,5.0624375 9.680875,5.28775 C9.68571875,6.20728125 10.0775938,6.93025 10.83025,7.444 C11.4407188,7.86071875 12.1175938,7.9880625 12.8405625,7.79103125 C13.03525,7.7380625 13.0332188,7.7305625 13.0330625,7.5343125 C13.0330625,7.429625 13.0330625,7.32509375 13.0330625,7.19775 L13.0330625,7.19775 Z M5.20134375,1.520875 C5.16196875,1.502125 5.1349375,1.48634375 5.105875,1.47603125 C5.04165625,1.4530625 4.97728125,1.43025 4.91165625,1.412125 C4.32759375,1.25165625 3.7330625,1.2168125 3.13290625,1.2761875 C1.51853125,1.435875 -0.15146875,2.82790625 0.01103125,4.90634375 C0.1065,6.12853125 0.670875,7.05915625 1.74415625,7.65540625 C2.5393125,8.0974375 3.39446875,8.1368125 4.2665,7.9349375 C4.81884375,7.807125 5.3093125,7.5574375 5.71728125,7.15571875 C5.79665625,7.07759375 5.834625,6.9961875 5.83384375,6.87978125 C5.82884375,6.0505625 5.8315,5.22103125 5.8305625,4.39165625 C5.8305625,4.3399375 5.8418125,4.2868125 5.8161875,4.229 L3.187125,4.229 L3.187125,4.74884375 L5.31103125,4.74884375 L5.31103125,4.88853125 C5.31103125,5.4293125 5.28728125,5.9715 5.32025,6.51009375 C5.33915625,6.8205625 5.21259375,6.9899375 4.96525,7.11665625 C4.96071875,7.119 4.95665625,7.12259375 4.952125,7.12525 C4.40821875,7.44540625 3.81134375,7.53884375 3.19384375,7.5149375 C2.349625,7.482125 1.65384375,7.13665625 1.1280625,6.4711875 C0.70478125,5.93525 0.53196875,5.31759375 0.53103125,4.6380625 C0.5299375,3.7855625 0.85321875,3.07978125 1.48790625,2.52978125 C2.514,1.64040625 3.6868125,1.56321875 4.93025,1.97009375 C5.01821875,1.99884375 5.0993125,2.048375 5.190875,2.0918125 C5.19540625,2.0605625 5.200875,2.04071875 5.20103125,2.02071875 C5.20165625,1.85821875 5.20134375,1.69571875 5.20134375,1.520875 L5.20134375,1.520875 Z" id="Fill-1" fill="#088C3A" mask="url(#mask-4)"></path>
                    </g>
                    <path d="M5.20134375,1.65365625 C5.20134375,1.8285 5.20165625,1.991 5.20103125,2.1535 C5.200875,2.17334375 5.19540625,2.19334375 5.190875,2.2244375 C5.0993125,2.18115625 5.01821875,2.131625 4.93025,2.10271875 C3.6868125,1.696 2.514,1.77303125 1.48790625,2.66240625 C0.85321875,3.2125625 0.5299375,3.9181875 0.53103125,4.77084375 C0.53196875,5.450375 0.70478125,6.06803125 1.1280625,6.60396875 C1.65384375,7.26928125 2.349625,7.61475 3.19384375,7.6475625 C3.81134375,7.671625 4.40821875,7.57803125 4.952125,7.257875 C4.95665625,7.255375 4.9605625,7.251625 4.96525,7.2494375 C5.21259375,7.12271875 5.33915625,6.95334375 5.32025,6.642875 C5.28728125,6.104125 5.31103125,5.56209375 5.31103125,5.0213125 L5.31103125,4.881625 L3.187125,4.881625 L3.187125,4.36178125 L5.8161875,4.36178125 C5.8418125,4.41959375 5.8305625,4.47271875 5.8305625,4.52428125 C5.8315,5.3538125 5.82884375,6.1831875 5.83384375,7.0125625 C5.834625,7.1288125 5.79665625,7.210375 5.71728125,7.2885 C5.3093125,7.69021875 4.81884375,7.93975 4.2665,8.06771875 C3.39446875,8.26959375 2.5393125,8.23021875 1.74415625,7.7881875 C0.670875,7.19178125 0.1065,6.26115625 0.01103125,5.03896875 C-0.15146875,2.9606875 1.51853125,1.56865625 3.13290625,1.4088125 C3.7330625,1.3494375 4.32759375,1.3844375 4.91165625,1.54490625 C4.97728125,1.562875 5.04165625,1.58584375 5.105875,1.60865625 C5.1349375,1.61896875 5.16196875,1.63490625 5.20134375,1.65365625" id="Fill-4" fill="#088C3A"></path>
                    <path d="M13.0330781,7.330375 C13.0330781,7.45771875 13.0330781,7.56225 13.0330781,7.6669375 C13.0330781,7.8631875 13.0352656,7.8706875 12.8405781,7.9238125 C12.1176094,8.12084375 11.4407344,7.99334375 10.8302656,7.576625 C10.0776094,7.062875 9.68573438,6.33990625 9.68089063,5.420375 C9.67979688,5.1950625 9.66979688,4.9694375 9.69182813,4.744125 C9.79792188,3.6613125 10.5857344,2.7481875 11.6410469,2.4869375 C12.6754219,2.231 13.7721406,2.66475 14.3738594,3.5713125 C14.6565156,3.99709375 14.8044844,4.46459375 14.8029219,4.97928125 C14.7999531,5.95553125 14.8021406,6.931625 14.8019844,7.90771875 C14.8019844,7.93365625 14.7997969,7.95975 14.7979219,7.9994375 L14.2968281,7.9994375 C14.2587031,7.95475 14.2785469,7.8944375 14.2783906,7.83928125 C14.2771406,6.8894375 14.2779219,5.93959375 14.2774531,4.98959375 C14.2769844,3.94209375 13.5174531,3.075375 12.4980781,2.95803125 C11.4610469,2.83865625 10.4651094,3.52240625 10.2621406,4.5431875 C10.1396406,5.15865625 10.1297969,5.78615625 10.4354219,6.37240625 C10.8665156,7.1994375 11.8740156,7.73021875 12.8944844,7.37271875 C12.9333906,7.359125 12.9732344,7.3485 13.0330781,7.330375" id="Fill-6" fill="#088C3A"></path>
                    <path d="M16.3456875,6.01460937 C16.636625,6.86257812 17.1988125,7.35664062 18.061625,7.47164062 C19.217875,7.62601562 20.3049063,6.66492187 20.3150625,5.49742187 C20.316625,5.32945312 20.3188125,5.16148437 20.3145938,4.99367187 C20.2931875,4.12742187 19.8786563,3.49851562 19.1085,3.13367187 C18.3600625,2.77882812 17.640375,2.90492187 17.0000625,3.41679687 C16.3900625,3.90460937 15.8931875,4.50414062 15.4050625,5.10945312 C15.3300625,5.20273437 15.256,5.29679687 15.164125,5.41226562 C15.1352188,5.22367187 15.1642813,5.05851562 15.1474063,4.89664062 C15.1283438,4.71679687 15.191,4.57976562 15.3039688,4.44164062 C15.7667813,3.87570312 16.2474063,3.33226562 16.8430313,2.89585937 C18.06975,1.99726563 19.8025625,2.41195313 20.5477188,3.79773437 C20.7294375,4.13570312 20.8281875,4.49773437 20.8386563,4.88210937 C20.8506875,5.33351562 20.8738125,5.78710937 20.7200625,6.22257812 C20.3919375,7.15148437 19.7508438,7.75710937 18.7863125,7.95398437 C17.8367813,8.14773437 17.0113125,7.87101562 16.3556875,7.14101562 C16.2074063,6.97585937 16.101625,6.78257812 16.0211563,6.57476562 C15.9894375,6.49273437 15.9908438,6.43023437 16.0550625,6.36164062 C16.154125,6.25585937 16.2419375,6.13976562 16.3456875,6.01460937" id="Fill-8" fill="#088C3A"></path>
                    <path d="M5.20126563,3.20035937 C5.17548438,3.20035937 5.16220313,3.20457812 5.15610938,3.19973438 C4.68329687,2.83442187 4.12814063,2.77973437 3.55985937,2.77817187 C2.97251562,2.77660937 2.45673437,2.96879687 2.02860938,3.37223437 C1.43564062,3.93098438 1.30704687,4.62520313 1.51282812,5.38067187 C1.71032813,6.10582813 2.20407812,6.55989063 2.94048438,6.71301563 C3.41626563,6.81192188 3.89064063,6.74645313 4.35095313,6.58723438 C4.41595312,6.56489063 4.44220312,6.53254688 4.44110937,6.46285938 C4.43751563,6.24317187 4.43970313,6.02348438 4.43970313,5.78457813 L3.19048438,5.78457813 C3.15767188,5.60176563 3.18407813,5.43692188 3.17220312,5.27551562 C3.30423438,5.24926563 4.66501563,5.24082813 4.91235937,5.26207813 C4.94251563,5.29207812 4.93345313,5.33051563 4.93345313,5.36629688 C4.93392188,5.81254688 4.93095312,6.25879688 4.93595313,6.70489063 C4.93704688,6.79535938 4.90595313,6.84989063 4.83517188,6.89973438 C4.58939063,7.07332812 4.31235937,7.16754688 4.02048438,7.21614063 C3.43735937,7.31332813 2.85610937,7.32989063 2.31001563,7.05723438 C1.40017187,6.60301563 0.946421875,5.85707813 0.904390625,4.84285937 C0.845953125,3.43129688 1.94407813,2.47864062 3.02720312,2.30082812 C3.72985938,2.18535937 4.41767187,2.25301562 5.07517188,2.54910937 C5.16892188,2.59129687 5.21189062,2.64114062 5.20407813,2.74942187 C5.19314063,2.89879687 5.20126563,3.04957812 5.20126563,3.20035937" id="Fill-10" fill="#088C3A"></path>
                    <path d="M17.0654375,5.142125 C17.11075,5.41071875 17.16825,5.64884375 17.286375,5.868375 C17.3793438,6.04103125 17.495125,6.1943125 17.6404375,6.3265 C18.2334062,6.8655625 19.1554375,6.50446875 19.36825,5.78353125 C19.4012187,5.67196875 19.4160625,5.55853125 19.4148125,5.44228125 C19.41325,5.29540625 19.415125,5.14853125 19.4143438,5.00165625 C19.412,4.52790625 19.206375,4.17040625 18.78075,3.9615 C18.3334062,3.742125 17.9091875,3.81978125 17.5341875,4.13259375 C17.1704375,4.43571875 16.8696563,4.80228125 16.5584063,5.157125 C16.1052813,5.67384375 15.665125,6.20134375 15.2459063,6.74634375 C15.2252813,6.77321875 15.2135625,6.81353125 15.1504375,6.819 C15.1504375,6.569 15.1499688,6.32103125 15.1509063,6.0730625 C15.1510625,6.0274375 15.1855938,5.998375 15.2110625,5.96571875 C15.7741875,5.2393125 16.3796563,4.55025 17.0304375,3.90134375 C17.2023125,3.72978125 17.402625,3.59509375 17.6190313,3.4849375 C18.488875,3.042125 19.4668437,3.53915625 19.8127812,4.34915625 C19.8896562,4.5293125 19.9404375,4.71696875 19.9395,4.913375 C19.937625,5.27884375 19.98325,5.6486875 19.8462187,6.00321875 C19.6012187,6.6374375 19.141375,7.01696875 18.4696562,7.09775 C17.7984062,7.178375 17.2937188,6.874625 16.9243437,6.32775 C16.815125,6.16634375 16.7424688,5.98634375 16.682625,5.8005625 C16.6509063,5.7015 16.6545,5.6261875 16.7315312,5.54478125 C16.84575,5.4243125 16.9449688,5.2893125 17.0654375,5.142125" id="Fill-12" fill="#088C3A"></path>
                    <path d="M13.0326875,6.33779688 C13.0326875,6.51779688 13.032375,6.67310937 13.0328437,6.82873437 C13.0331562,6.90857813 12.9687812,6.93217187 12.9145625,6.95951562 C12.5812812,7.12717187 12.2290937,7.15545312 11.8725312,7.06842187 C11.098625,6.87935937 10.581125,6.21123438 10.5839375,5.41607812 C10.5847188,5.19076562 10.5647188,4.96451563 10.5989375,4.74014063 C10.7294063,3.88514063 11.486125,3.27857813 12.3645625,3.32310937 C13.1981562,3.36545313 13.8676875,4.03107812 13.8956562,4.89014062 C13.9212812,5.67123437 13.9058125,6.45357812 13.9081562,7.23545312 C13.9089375,7.48670313 13.9083125,7.73795313 13.9083125,8.00123437 L13.3978437,8.00123437 C13.3620625,7.95357812 13.3809687,7.89389062 13.3808125,7.83842187 C13.3795625,6.88342187 13.3812812,5.92842187 13.3794062,4.97342187 C13.3784687,4.45951562 13.0520625,4.03139063 12.5583125,3.88670312 C12.0815937,3.74717187 11.563625,3.93670312 11.289875,4.35389063 C11.1722188,4.53326563 11.108,4.73076563 11.1075313,4.94701562 C11.1072187,5.10435937 11.1126875,5.26201563 11.1065938,5.41920312 C11.077375,6.16623438 11.7876875,6.78545313 12.634875,6.52748438 C12.7694062,6.48639062 12.8906562,6.41795313 13.0326875,6.33779688" id="Fill-14" fill="#088C3A"></path>
                    <path d="M6.9175,8.00451562 L6.43484375,8.00451562 C6.396875,7.95420312 6.4153125,7.89435937 6.4153125,7.83873437 C6.4140625,6.88342187 6.4184375,5.92810938 6.4134375,4.97264062 C6.4053125,3.43920312 7.61125,2.26404688 9.284375,2.43498437 C9.579375,2.46529687 9.8621875,2.53935937 10.123125,2.68498437 C10.1684375,2.71014062 10.2178125,2.73123437 10.2557813,2.78467187 C10.1423438,2.90982812 10.0275,3.03639063 9.905625,3.17092187 C9.62390625,3.02295312 9.32375,2.94639062 9.00390625,2.94357812 C7.7909375,2.93264063 6.94140625,3.76201562 6.93515625,4.97514062 C6.9303125,5.92529687 6.93453125,6.87545312 6.93375,7.82560937 C6.93375,7.88232812 6.94609375,7.94076562 6.9175,8.00451562" id="Fill-16" fill="#088C3A"></path>
                    <path d="M7.81998437,8.00832813 C7.65170313,8.01426563 7.49107813,8.01942188 7.33779688,8.00598438 C7.30185937,7.96629688 7.31264063,7.92801563 7.31264063,7.89285938 C7.31217187,6.91129687 7.30545312,5.92957813 7.31404687,4.94817187 C7.32404687,3.80098438 8.38451562,3.04989062 9.54951562,3.40801562 C9.59826562,3.42301562 9.65123437,3.43707812 9.69217187,3.48582812 C9.61904688,3.63114062 9.54482813,3.77879687 9.46670313,3.93410937 C9.23779687,3.84848437 9.00764063,3.82114062 8.76982813,3.85910938 C8.26326563,3.94004688 7.90748438,4.30504688 7.84685937,4.81379688 C7.83764062,4.89176562 7.83639062,4.97098438 7.83639062,5.04942188 C7.83576562,5.97332813 7.83623438,6.89723438 7.83545312,7.82098438 C7.83545312,7.87785937 7.84576562,7.93598438 7.81998437,8.00832813" id="Fill-18" fill="#088C3A"></path>
                    <path d="M15.6881094,3.43298438 L15.6881094,0.163921875 L16.1893594,0.163921875 C16.2218594,0.201265625 16.2085781,0.250640625 16.2085781,0.296265625 C16.2093594,1.11907812 16.2077969,1.94189063 16.2110781,2.76470313 C16.2113906,2.85689063 16.1849844,2.91985938 16.1142031,2.97954688 C15.9632656,3.10673438 15.8448281,3.26689063 15.6881094,3.43298438" id="Fill-20" fill="#088C3A"></path>
                    <g id="Group-24" transform="translate(16.562500, 0.132703)">
                        <mask id="mask-6" fill="white">
                            <use xlink:href="#path-5"></use>
                        </mask>
                        <g id="Clip-23"></g>
                        <path d="M0.02275,0.02353125 L0.51790625,0.02353125 C0.55821875,0.06134375 0.54415625,0.10571875 0.54415625,0.1455625 C0.54509375,0.7849375 0.54259375,1.42415625 0.547125,2.063375 C0.54790625,2.16040625 0.515875,2.21228125 0.43415625,2.260875 C0.2961875,2.34259375 0.16775,2.44009375 0.02275,2.539625 L0.02275,0.02353125 Z" id="Fill-22" fill="#088C3A" mask="url(#mask-6)"></path>
                    </g>
                    <path d="M22.4975625,1.38532812 L22.4975625,7.93970313 C22.9499063,7.95939063 23.3564688,7.99032812 23.8274062,7.90485938 L23.8274062,5.68657813 C24.1613125,5.51735938 24.45225,5.58642188 24.7311562,5.58798438 C25.1539688,5.59017188 25.5685,5.53548438 25.9556875,5.38360938 C26.6919375,5.09517188 27.127875,4.57048437 27.197875,3.74767187 C27.3320938,2.16829688 26.3752188,1.49564063 25.1920938,1.39939063 C24.3163125,1.32814062 23.4299063,1.38532812 22.4975625,1.38532812" id="Fill-25" fill="#FCFDFC"></path>
                    <path d="M30.5236875,7.610375 C30.72525,7.68240625 30.7069688,7.91178125 30.74775,7.919125 L31.8365,7.919125 C31.8365,6.74178125 31.8674375,5.6019375 31.82525,4.46490625 C31.7993125,3.76521875 31.435875,3.2025625 30.7457188,2.9856875 C29.8025938,2.689125 28.8613438,2.72975 27.9661875,3.19646875 C27.9194688,3.53615625 27.895875,3.84053125 27.9960313,4.206625 C28.5324375,3.9263125 29.084,3.82428125 29.6591563,3.86303125 C30.3107188,3.9069375 30.4424375,4.05678125 30.478375,4.79475 C30.2765,5.010375 29.9982188,4.94334375 29.7486875,4.9844375 C29.237125,5.06865625 28.725875,5.14678125 28.2532188,5.38584375 C27.7268125,5.65178125 27.4960313,6.09553125 27.5168125,6.65365625 C27.5386875,7.23834375 27.8004063,7.7094375 28.374,7.932875 C29.1318125,8.22834375 29.8504063,8.1613125 30.5236875,7.610375" id="Fill-27" fill="#FCFDFC"></path>
                    <g id="Group-31" transform="translate(32.031250, 2.788953)">
                        <mask id="mask-8" fill="white">
                            <use xlink:href="#path-7"></use>
                        </mask>
                        <g id="Clip-30"></g>
                        <path d="M2.00959375,4.91709375 C1.8519375,5.64053125 1.44490625,6.05615625 0.76740625,6.15553125 L0.76740625,7.18740625 C1.76521875,7.116625 2.58521875,6.85678125 2.9775625,5.8694375 C3.35084375,4.92990625 3.71021875,3.98459375 4.072875,3.04084375 C4.4335,2.10271875 4.7906875,1.16334375 5.1635,0.187875 C4.71396875,0.132875 4.3306875,0.13740625 3.93365625,0.17771875 C3.5431875,1.22678125 3.15975,2.2569375 2.72553125,3.4235 C2.27615625,2.236625 1.884125,1.20115625 1.48959375,0.15834375 C1.02146875,0.1638125 0.59646875,0.1035 0.141,0.2031875 C0.4713125,1.036 0.77678125,1.80584375 1.08209375,2.576 C1.387875,3.34725 1.69334375,4.11865625 2.00959375,4.91709375" id="Fill-29" fill="#FCFDFC" mask="url(#mask-8)"></path>
                    </g>
                    <path d="M23.7976094,2.50326563 C23.8133906,3.18889062 23.7533906,3.82935938 23.8419844,4.48201563 C24.2512031,4.58560937 24.6407344,4.55560937 25.0227656,4.51264062 C25.6076094,4.44717188 25.9187031,4.04139063 25.8946406,3.42889062 C25.8718281,2.85389063 25.5716719,2.52373438 24.9804219,2.46701563 C24.6210469,2.43248437 24.2566719,2.40545313 23.7976094,2.50326563 L23.7976094,2.50326563 Z M22.4976094,1.38529688 C23.4297969,1.38529688 24.3162031,1.32810938 25.1921406,1.39935938 C26.3752656,1.49560938 27.3321406,2.16826563 27.1979219,3.74764063 C27.1277656,4.57045313 26.6918281,5.09514063 25.9557344,5.38373438 C25.5685469,5.53545313 25.1540156,5.59014063 24.7312031,5.58795313 C24.4521406,5.58639063 24.1613594,5.51732813 23.8272969,5.68654688 L23.8272969,7.90482813 C23.3565156,7.99029688 22.9497969,7.95935938 22.4976094,7.93967188 L22.4976094,1.38529688 Z" id="Fill-32" fill="#088C3A"></path>
                    <path d="M30.564125,6.65471875 C30.584125,6.3755 30.6244375,6.07409375 30.5261562,5.7701875 C30.026625,5.7189375 29.5819375,5.8320625 29.1524063,6.0058125 C28.8877188,6.11253125 28.742875,6.33659375 28.7789688,6.61721875 C28.8186563,6.92503125 29.0099063,7.12846875 29.3369375,7.16315625 C29.8250625,7.214875 30.262875,7.1351875 30.564125,6.65471875 M30.5236563,7.61034375 C29.8505312,8.1614375 29.1317813,8.2283125 28.3739688,7.933 C27.8005313,7.70940625 27.5388125,7.2383125 27.5167813,6.653625 C27.496,6.0955 27.7267813,5.65175 28.2531875,5.3858125 C28.7258438,5.14690625 29.2370938,5.06878125 29.7486563,4.9845625 C29.9981875,4.9433125 30.2764687,5.0105 30.4783437,4.794875 C30.4425625,4.05690625 30.3106875,3.9070625 29.659125,3.863 C29.0839688,3.82425 28.5324063,3.9264375 27.996,4.20659375 C27.8958438,3.8405 27.9194375,3.53628125 27.9661563,3.1964375 C28.8614688,2.72971875 29.8025625,2.68925 30.7456875,2.98565625 C31.4358437,3.20253125 31.7992812,3.7651875 31.8252187,4.464875 C31.8674062,5.6020625 31.836625,6.74190625 31.836625,7.91909375 L30.7477188,7.91909375 C30.7069375,7.91175 30.7252187,7.682375 30.5236563,7.61034375" id="Fill-34" fill="#088C3A"></path>
                    <g id="Group-38" transform="translate(32.031250, 2.788953)">
                        <mask id="mask-10" fill="white">
                            <use xlink:href="#path-9"></use>
                        </mask>
                        <g id="Clip-37"></g>
                        <path d="M2.00959375,4.91709375 C1.69334375,4.11865625 1.387875,3.34725 1.08209375,2.576 C0.77678125,1.80584375 0.4713125,1.036 0.141,0.2031875 C0.59646875,0.1035 1.02146875,0.1638125 1.48959375,0.15834375 C1.884125,1.20115625 2.27615625,2.236625 2.72553125,3.4235 C3.15975,2.2569375 3.5431875,1.22678125 3.93365625,0.17771875 C4.3306875,0.13740625 4.71396875,0.132875 5.1635,0.187875 C4.7906875,1.16334375 4.4335,2.10271875 4.072875,3.04084375 C3.71021875,3.98459375 3.35084375,4.92990625 2.9775625,5.8694375 C2.58521875,6.85678125 1.76521875,7.116625 0.76740625,7.18740625 L0.76740625,6.15553125 C1.44490625,6.05615625 1.8519375,5.64053125 2.00959375,4.91709375" id="Fill-36" fill="#088C3A" mask="url(#mask-10)"></path>
                    </g>
                    <path d="M23.7976094,2.50326562 C24.2566719,2.40545313 24.6210469,2.43248437 24.9804219,2.46701562 C25.5716719,2.52373437 25.8718281,2.85389062 25.8946406,3.42889062 C25.9187031,4.04139063 25.6076094,4.44717188 25.0227656,4.51264062 C24.6407344,4.55560937 24.2512031,4.58560937 23.8419844,4.48201562 C23.7533906,3.82935937 23.8133906,3.18889062 23.7976094,2.50326562" id="Fill-39" fill="#FCFDFC"></path>
                    <path d="M30.564125,6.65471875 C30.262875,7.1351875 29.8250625,7.214875 29.3369375,7.16315625 C29.0099063,7.12846875 28.8186563,6.92503125 28.7789687,6.61721875 C28.742875,6.33659375 28.8877187,6.11253125 29.1524063,6.0058125 C29.5819375,5.8320625 30.026625,5.7189375 30.5261563,5.7701875 C30.6244375,6.07409375 30.584125,6.3755 30.564125,6.65471875" id="Fill-41" fill="#FCFDFC"></path>
                </g>
            </g>
        </g>
    </g>
</svg>