<?xml version="1.0" encoding="UTF-8"?>
<svg width="54px" height="36px" viewBox="0 0 54 36" version="1.1" xmlns="http://www.w3.org/2000/svg" xmlns:xlink="http://www.w3.org/1999/xlink">
    <!-- Generator: Sketch 53.2 (72643) - https://sketchapp.com -->
    <title>Group 19</title>
    <desc>Created with Sketch.</desc>
    <defs>
        <rect id="path-1" x="0" y="0" width="50" height="32" rx="2"></rect>
        <filter x="-6.0%" y="-9.4%" width="112.0%" height="118.8%" filterUnits="objectBoundingBox" id="filter-2">
            <feOffset dx="0" dy="0" in="SourceAlpha" result="shadowOffsetOuter1"></feOffset>
            <feGaussianBlur stdDeviation="1" in="shadowOffsetOuter1" result="shadowBlurOuter1"></feGaussianBlur>
            <feColorMatrix values="0 0 0 0 0   0 0 0 0 0   0 0 0 0 0  0 0 0 0.07 0" type="matrix" in="shadowBlurOuter1"></feColorMatrix>
        </filter>
        <polygon id="path-3" points="0 0.0195728797 3.65966259 0.0195728797 3.65966259 2.97231035 0 2.97231035"></polygon>
        <polygon id="path-5" points="0.00977012395 0.00587503648 1.97452871 0.00587503648 1.97452871 3.06352941 0.00977012395 3.06352941"></polygon>
    </defs>
    <g id="Page-1" stroke="none" stroke-width="1" fill="none" fill-rule="evenodd">
        <g id="Group-19" transform="translate(2.000000, 2.000000)">
            <g id="Rectangle-Copy-7">
                <use fill="black" fill-opacity="1" filter="url(#filter-2)" xlink:href="#path-1"></use>
                <use fill="#FFFFFF" fill-rule="evenodd" xlink:href="#path-1"></use>
            </g>
            <g id="Group-28" transform="translate(13.000000, 6.000000)">
                <g id="Group-23">
                    <path d="M11.0650285,8.466192 C11.0773814,8.461992 11.0883014,8.45551906 11.0979367,8.44672376 C11.2199344,8.41806494 11.3357061,8.37863435 11.4094285,8.26646965 C11.4211391,8.260392 11.4315155,8.25263435 11.4407555,8.24319671 C11.6800073,8.18054259 11.8814591,8.05236847 12.0605273,7.88535671 C12.0851838,7.87409082 12.1097908,7.86287435 12.1343979,7.85160847 C12.1949767,7.85906965 12.2330732,7.83209082 12.2515532,7.77506965 C12.2758144,7.76054259 12.3000261,7.74601553 12.3242379,7.73143906 C12.4749932,7.74112376 12.5596849,7.63325788 12.655692,7.54545318 C12.6791626,7.53142024 12.7026332,7.51733788 12.7260544,7.50330494 C12.7862873,7.51318729 12.8266567,7.48981553 12.8463226,7.43165788 C12.870732,7.41900847 12.8951908,7.40635906 12.9196002,7.39370965 C13.0657108,7.36332141 13.1916614,7.29745553 13.2897438,7.18277082 C13.3014544,7.17748376 13.3118802,7.17036847 13.3210708,7.16137553 C13.4424261,7.13167906 13.5611132,7.09733788 13.6310308,6.97978729 C13.6437791,6.97593318 13.6554896,6.97005318 13.6661626,6.96214729 C13.8766073,6.89440376 14.0698073,6.79730965 14.2247626,6.63484376 C14.2375602,6.63133553 14.2492214,6.62560376 14.2597461,6.61750024 C14.3122708,6.62639435 14.3558026,6.60079906 14.3976544,6.57693318 C14.6667508,6.42385553 14.9350073,6.26924612 15.2031649,6.11438965 C15.2316261,6.09793553 15.2543555,6.07436612 15.2602355,6.03938259 C15.2723414,6.03315671 15.2833108,6.02534965 15.2930944,6.015912 C15.3874708,6.01546729 15.4675673,5.98883435 15.5120873,5.89678024 C15.5244896,5.89287671 15.5356567,5.88670024 15.5455885,5.87830024 C15.6019673,5.88452612 15.6387296,5.85497788 15.6677838,5.81139671 C15.7414073,5.76613553 15.8149814,5.72082494 15.8886049,5.67556376 C15.982932,5.67254965 16.0632261,5.64512612 16.1052755,5.55109553 C16.117332,5.54640141 16.1281038,5.53968141 16.1376402,5.53098494 C16.2883461,5.50588376 16.4140002,5.43814024 16.5066473,5.31416612 L16.5811602,5.28165318 C16.6411461,5.28876847 16.6802308,5.263272 16.6989085,5.20605318 C16.7230214,5.19122965 16.7471344,5.17645553 16.7712473,5.161632 C16.9275861,5.15258965 17.0425179,5.06888612 17.1414402,4.95627671 C17.1532002,4.95054494 17.1637249,4.94298494 17.1729155,4.93359671 C17.2315179,4.94051435 17.2732214,4.91941553 17.2927885,4.86145553 C17.3172473,4.84865788 17.3417555,4.83590965 17.3662638,4.823112 C17.5145979,4.79672612 17.6387696,4.728192 17.7352708,4.61138259 C17.7470802,4.60629318 17.7579508,4.59957318 17.7678332,4.59132141 C17.9837626,4.53271906 18.169452,4.422432 18.3273226,4.26441318 C18.3390826,4.25907671 18.3501508,4.25260376 18.3606261,4.24499435 C18.5364826,4.21786729 18.6702402,4.10338024 18.8210449,4.02397553 C18.9059838,3.97925788 18.978372,3.90143435 19.0995296,3.91477553 C19.1216661,3.93938259 19.1562049,3.96537318 19.1744873,3.999912 C19.3124449,4.261152 19.4601861,4.51720376 19.5706708,4.79272376 C19.6059508,4.88072612 19.6179579,4.98780141 19.7131249,5.04413082 L19.7342238,5.13010729 C19.7807696,5.42257553 19.8621014,5.70614965 19.9553414,5.98656141 C19.9574661,5.99288612 19.9676944,5.99654259 19.9741673,6.00138494 C19.9778732,6.02841318 19.9816779,6.05544141 19.9853838,6.08246965 C19.9398261,6.22645553 19.9902261,6.35329553 20.0560426,6.47736847 C20.0600944,6.60578965 20.0641461,6.73416141 20.0681485,6.86258259 C20.0332144,7.05074259 20.0339061,7.23900141 20.067852,7.42721082 C20.0640967,7.55553318 20.060292,7.68385553 20.0565367,7.81217788 C19.9916591,7.93674494 19.938492,8.06333788 19.9861249,8.20791671 C19.9793061,8.24986729 19.9724873,8.29176847 19.9656191,8.33371906 C19.8986167,8.38214259 19.8927367,8.46026259 19.8781108,8.530032 C19.7583367,9.10202259 19.5387014,9.63354494 19.2544355,10.1427332 C19.1846661,10.2676955 19.0796167,10.3808979 19.0657814,10.5345685 C19.0449296,10.5638202 19.0240285,10.5929732 19.0031767,10.6222249 C18.9032661,10.6813214 18.8451579,10.7696696 18.8213414,10.882032 C18.8125461,10.8914696 18.8055791,10.9020932 18.8004402,10.913952 C18.7415414,10.9285285 18.7156002,10.9676132 18.7163908,11.0266108 C18.6943038,11.0544791 18.6722661,11.0823473 18.6502285,11.1101661 C18.5652402,11.1603685 18.4836614,11.2134367 18.4708638,11.3241191 C18.4168073,11.3856861 18.3627014,11.4473026 18.3085955,11.5088696 C18.1742944,11.5731049 18.0828332,11.6795379 18.0138049,11.8081073 C17.8857296,11.9274367 17.7576049,12.0467661 17.6295296,12.1660955 C17.5726073,12.1676273 17.5294214,12.1878367 17.5163273,12.2491567 C17.4716591,12.2873026 17.4269908,12.3254979 17.3823226,12.3636932 C17.2361132,12.4224438 17.0986002,12.4928555 17.0175155,12.6382249 C17.0062002,12.6440555 16.9962191,12.6515661 16.9874732,12.6608061 C16.9303038,12.6571991 16.8886002,12.6788414 16.8675508,12.7341826 C16.8564826,12.7404579 16.8466002,12.7482649 16.8380026,12.7577026 C16.7466896,12.7687708 16.6684214,12.8007402 16.6259273,12.8900273 C16.6140191,12.8951167 16.6034449,12.9021826 16.5942544,12.9114226 C16.5098096,12.9084579 16.4591626,12.9575238 16.4201767,13.0245755 C16.3956685,13.0360391 16.3712096,13.0475026 16.3467014,13.0589661 C16.2275696,13.0694414 16.1331932,13.1401002 16.0323438,13.1924273 C15.3879649,13.5269944 14.7166073,13.7881849 14.0113038,13.9647332 C13.8802638,13.997592 13.7287673,13.9913661 13.6241626,14.1042226 C13.5787532,14.1086696 13.5333438,14.1131661 13.4879344,14.1176626 C13.2252614,14.0990838 12.9775108,14.1726085 12.7290685,14.2413402 C12.7230896,14.2429708 12.7197791,14.2542861 12.7152332,14.2610061 C12.6225861,14.2652555 12.5299885,14.2695049 12.4373908,14.2737049 C12.2526896,14.2124344 12.0626026,14.2449967 11.8783461,14.2605614 C11.6071249,14.2833896 11.3398567,14.2821049 11.0688332,14.2592273 C10.8843791,14.243712 10.6943414,14.2135708 10.5093438,14.2720249 C10.4332002,14.268912 10.3570567,14.2657496 10.2809132,14.2626367 C10.1968144,14.1561544 10.0695296,14.1901991 9.96225671,14.174832 C9.79578847,14.1510155 9.63604024,14.0581214 9.46013435,14.1154391 L9.32390612,14.0984908 C9.30231318,14.0604438 9.26614376,14.0399873 9.226812,14.0302038 C8.98261906,13.9697238 8.74055082,13.8911096 8.49250376,13.8582014 C8.26372729,13.8278132 8.04270847,13.8872061 7.87796965,14.0732414 C7.85326376,14.0854955 7.82860729,14.0977496 7.80395082,14.1100038 C7.67977906,14.1052602 7.60284494,14.1825402 7.53035788,14.2675285 C7.45574612,14.3107144 7.38108494,14.3539002 7.30647318,14.3970367 C7.11880729,14.4308344 6.97739082,14.5447779 6.84032259,14.666232 C6.828612,14.6710744 6.817692,14.6774485 6.80766141,14.6852555 C6.67168024,14.6909873 6.572412,14.7585332 6.49824494,14.8685732 C6.48604024,14.8734649 6.47512024,14.880432 6.46568259,14.8896226 C6.41058847,14.8806791 6.37012024,14.9039026 6.33894141,14.9473849 C6.31636024,14.9633449 6.29382847,14.9793049 6.27129671,14.9953638 C6.13338847,14.9911144 6.03881435,15.1127167 5.90624259,15.121512 C5.66254376,15.0199708 5.63284729,14.9713002 5.69243788,14.7413873 C5.82757906,14.2195991 5.96276965,13.697712 6.10393906,13.1775049 C6.16432024,12.9550532 6.104532,12.7815685 5.92521671,12.6437591 C5.89146847,12.6118391 5.85772024,12.5800179 5.823972,12.5480979 C5.80988965,12.488112 5.77199082,12.4611826 5.71076965,12.4667661 L5.62780729,12.3982814 C5.61184729,12.3393826 5.57103318,12.3166038 5.51277671,12.3189755 C5.48658847,12.2944673 5.46040024,12.2699096 5.434212,12.2454508 C5.36804965,12.1439591 5.29412965,12.0514108 5.16931553,12.0183049 C4.97018612,11.8205096 4.77115553,11.6227638 4.57202612,11.4249685 C4.53976024,11.2861708 4.43619318,11.2055308 4.32931553,11.1276579 L4.32837671,11.1267685 C4.27209671,10.977792 4.18888729,10.8496179 4.04880494,10.7655685 C4.04465435,10.7532155 4.03842847,10.7420979 4.03012729,10.7320673 C4.03358612,10.6729214 4.00556965,10.6355167 3.95052494,10.6167402 C3.94558376,10.6048814 3.93886376,10.5940602 3.93041435,10.5843755 C3.93688729,10.5245873 3.91302141,10.4842673 3.85451788,10.4662814 C3.84853906,10.4549661 3.84088024,10.4449355 3.83159082,10.4361896 C3.837372,10.3557473 3.78519318,10.2974908 3.74981435,10.2346885 C3.44267082,9.68982494 3.20658141,9.117192 3.06402847,8.50705553 C3.049452,8.44459906 3.04367082,8.37542259 2.98165906,8.33446024 L2.96609435,8.20762024 C3.03616024,8.04386965 2.95660729,7.88792612 2.93852259,7.72961082 C2.88357671,7.24888376 2.89602847,6.77146729 2.98259788,6.29513788 C2.99514847,6.22620847 3.01199788,6.14952141 2.96579788,6.08182729 C2.97103553,6.03997553 2.97627318,5.99812376 2.98151082,5.956272 C3.05434376,5.90063435 3.05834612,5.81327435 3.07643082,5.73564847 C3.20924965,5.16494259 3.42453671,4.62793553 3.71132259,4.11706729 C3.75732494,4.03509318 3.83060259,3.95815906 3.82892259,3.85226965 C3.83826141,3.84337553 3.84572259,3.83309788 3.85125671,3.82148612 C3.90980965,3.80345082 3.93367553,3.76342729 3.92636259,3.70349082 C4.01594612,3.57749082 4.10548024,3.45149082 4.19501435,3.32549082 C4.27273906,3.29742494 4.32042141,3.24638259 4.32185435,3.159912 C4.33158847,3.15146259 4.339692,3.14167906 4.34621435,3.13056141 C4.43816965,3.08594259 4.50635788,3.02155906 4.52478847,2.91576847 C4.59529906,2.83759906 4.66585906,2.75938024 4.73636965,2.68121082 C4.79220494,2.671032 4.82624965,2.63881553 4.83603318,2.58223906 C4.92952024,2.49310024 5.02295788,2.40396141 5.11634612,2.31482259 C5.18176729,2.31966494 5.21418141,2.28838729 5.21610847,2.22375671 C5.233452,2.20680847 5.25084494,2.18986024 5.26818847,2.17296141 C5.37472024,2.15561788 5.44216729,2.09118494 5.48278376,1.99453553 C5.49419788,1.98870494 5.50432729,1.98109553 5.51322141,1.97180612 C5.57325671,1.97432612 5.61135318,1.947792 5.624052,1.88775671 C5.65310612,1.86655906 5.68220965,1.845312 5.71126376,1.82411435 C5.92007788,1.73502494 6.09237671,1.58624612 6.28014141,1.46414965 C6.37827318,1.40030965 6.51148729,1.37466494 6.56949671,1.25335906 C6.58170141,1.24915906 6.59276965,1.24293318 6.602652,1.23468141 C6.65838847,1.23739906 6.69510141,1.20804847 6.72287082,1.16352847 C6.74718141,1.15162024 6.77154141,1.13966259 6.795852,1.12770494 C6.86720259,1.13669788 6.92096259,1.09440141 6.97852729,1.06416141 C7.50446612,0.788246118 8.05639553,0.572316706 8.62423553,0.405947294 C9.54418376,0.136406118 10.4898755,0.0240437647 11.4472285,0.000721411765 C11.6787226,-0.00491152941 11.907252,0.0246367059 12.1369673,0.0388672941 C12.5301861,0.0632272941 12.9230591,0.0904037647 13.3101014,0.175392 C13.5810261,0.234883765 13.8558049,0.276883765 14.1288544,0.326690824 C14.1579579,0.332224941 14.187012,0.337709647 14.2160661,0.343194353 C14.2437861,0.359846118 14.2694802,0.382427294 14.2993744,0.392161412 C14.9568967,0.606806118 15.6011273,0.852728471 16.2084967,1.18788847 C16.2503485,1.21096376 16.2943249,1.238832 16.3475414,1.22939435 C16.3578191,1.23759671 16.3691344,1.24397082 16.3814873,1.24856612 C16.4205226,1.344672 16.5009155,1.37209553 16.5947979,1.37718494 C16.6041861,1.38622729 16.6148591,1.393392 16.6267673,1.39867906 C16.6431226,1.45658965 16.6792426,1.48633553 16.7413038,1.47912141 C16.7835014,1.50417318 16.8256991,1.52922494 16.8678967,1.55427671 C17.0333767,1.72499435 17.2156567,1.87283435 17.4347485,1.97042259 C17.4620238,1.99374494 17.4892991,2.01701788 17.5165249,2.04038965 C17.5414779,2.12004141 17.5952873,2.16480847 17.6783979,2.17404847 C17.8068685,2.29288376 17.9353885,2.41171906 18.0638591,2.53055435 C18.0847602,2.60818024 18.1334802,2.65872847 18.2108591,2.68126024 C18.2822591,2.75893553 18.3537085,2.83666024 18.4251579,2.91433553 C18.4235273,2.99072612 18.3786614,3.02837788 18.3121038,3.05797553 C17.9441344,3.22133082 17.5787344,3.39031906 17.2106167,3.55322965 C16.5722167,3.83581553 15.9320379,4.11430024 15.2933908,4.39629318 C14.7221414,4.64854024 14.1492614,4.89732847 13.583052,5.16044612 C13.4220191,5.23525553 13.2352426,5.26727435 13.107612,5.40814729 C13.0700096,5.42954259 13.0324073,5.45103671 12.9948049,5.47248141 C12.9353132,5.44901082 12.8830849,5.47332141 12.8302638,5.49669318 C12.5763367,5.60905553 12.3186049,5.71356141 12.0698661,5.83639906 C11.9557249,5.89272847 11.8212755,5.91555671 11.7312473,6.01783906 L11.6592049,6.05909788 C11.5882496,6.036072 11.5313273,6.07688612 11.4725767,6.10297553 C11.045412,6.29266729 10.6195814,6.48552141 10.1918732,6.67397788 C10.0269367,6.74666259 9.86348259,6.83426965 9.68989906,6.87310729 C9.41116729,6.93546494 9.15704259,6.84998259 8.93157671,6.67239671 C8.79129671,6.561912 8.65660024,6.43961788 8.47931082,6.38640141 C8.41962141,6.34637788 8.35988259,6.30635435 8.30019318,6.26633082 C8.17152494,6.08355671 7.98687318,5.97791435 7.78655788,5.89391435 C7.77751553,5.88492141 7.76723788,5.87765788 7.75572494,5.87217318 C7.73976494,5.81110024 7.69722141,5.79074259 7.63827318,5.79543671 C7.629132,5.78664141 7.61900259,5.77913082 7.60788494,5.77305318 C7.57813906,5.69725553 7.53277906,5.64166729 7.44205906,5.64473082 C7.43202847,5.63677553 7.42105906,5.63045082 7.40915082,5.62580612 C7.36196259,5.50588376 7.24628965,5.47025788 7.14583553,5.42267435 C7.00071318,5.35394259 6.93499553,5.38022965 6.79787788,5.53345553 C6.79031788,5.54482024 6.78512965,5.55722259 6.78236259,5.57056376 C6.68185906,5.73174494 6.69307553,5.81110024 6.84224965,5.99501082 C6.85410847,6.02016141 6.86601671,6.045312 6.87787553,6.07046259 C6.85652965,6.16044141 6.91651553,6.228432 6.94863318,6.30012847 C7.27707318,7.03280612 7.60714376,7.76484141 7.94408259,8.49361553 C8.07813671,8.78351435 8.19069671,9.08369082 8.35138376,9.36113788 C8.39610141,9.43846729 8.427972,9.52854494 8.53850612,9.53427671 C8.54799318,9.54297318 8.55881435,9.54949553 8.57092024,9.55384376 C8.58618847,9.60720847 8.62858376,9.62776376 8.676612,9.64179671 C8.98182847,9.73068847 9.22340259,9.616992 9.43374847,9.40397788 C9.44575553,9.39913553 9.45677435,9.392712 9.46690376,9.38475671 C9.55792024,9.37714729 9.63406376,9.34221318 9.68708259,9.26483435 C9.709812,9.24872612 9.73254141,9.23261788 9.75527082,9.21650965 C9.93359788,9.19877082 10.0623649,9.092832 10.1844614,8.97513318 C10.2394567,8.94173082 10.2945014,8.90827906 10.3494967,8.87487671 C10.4999555,8.85269082 10.6200261,8.77639906 10.7209249,8.66606259 C10.7329814,8.66171435 10.7439014,8.65538965 10.7537344,8.64713788 C10.8738544,8.61497082 10.9940238,8.58285318 11.0650285,8.466192" id="Fill-1" fill="#2DB24B"></path>
                    <g id="Group-5" transform="translate(0.000000, 17.120633)">
                        <mask id="mask-4" fill="white">
                            <use xlink:href="#path-3"></use>
                        </mask>
                        <g id="Clip-4"></g>
                        <path d="M2.05051906,0.0413032941 L2.08352612,0.167105647 C2.05966024,0.225609176 2.08110494,0.266917412 2.13274024,0.296811529 C2.137632,0.323148 2.14247435,0.349484471 2.14731671,0.375870353 C2.11322259,0.474693882 2.15141788,0.552813882 2.21837082,0.622583294 C2.22523906,0.651390353 2.23205788,0.680197412 2.23887671,0.709004471 C2.21476376,0.809409176 2.25083435,0.892668 2.31264847,0.968762118 C2.31872612,0.997964471 2.32480376,1.02721624 2.33088141,1.056468 C2.30681788,1.11502094 2.32841082,1.15627976 2.38009553,1.18612447 C2.385432,1.21251035 2.39081788,1.23884682 2.39620376,1.26528212 C2.35983671,1.36539035 2.39946494,1.44301624 2.46918494,1.51169859 C2.47452141,1.54070329 2.47980847,1.569708 2.48509553,1.59866329 C2.45796847,1.70035271 2.50056141,1.78178329 2.56059671,1.85812447 C2.56711906,1.88707976 2.57364141,1.91613388 2.58021318,1.945188 C2.55432141,2.00235741 2.57141788,2.04539506 2.62354729,2.07682094 C2.62977318,2.10300918 2.63594965,2.12909859 2.64217553,2.15523741 C2.60116376,2.24719271 2.64034729,2.30278094 2.723112,2.35308212 C2.81244847,2.24249859 2.84357788,2.132508 2.81190494,2.00611271 L2.82826024,1.92823976 C2.89975906,1.88406565 2.90558965,1.82116447 2.879352,1.74912212 C2.88434259,1.71962329 2.88933318,1.69012447 2.89432376,1.66062565 C2.96389553,1.56847271 2.98781082,1.46525153 2.96903435,1.35175271 C2.97422259,1.32279741 2.97941082,1.29384212 2.98454965,1.26488682 C3.04666024,1.22496212 3.05086024,1.16937388 3.02748847,1.10637388 C3.03341788,1.07702329 3.03934729,1.04767271 3.04527671,1.01832212 C3.08495435,0.990898588 3.09908612,0.959225647 3.06178024,0.918955059 C3.06756141,0.893458588 3.07324376,0.867962118 3.07897553,0.842515059 C3.14632376,0.796908 3.15096847,0.733660941 3.12942494,0.663051529 C3.13416847,0.633206824 3.138912,0.603460941 3.14365553,0.573665647 C3.20008376,0.495446824 3.24129318,0.413373882 3.21041082,0.312820941 C3.21767435,0.267856235 3.22488847,0.222891529 3.232152,0.177926824 C3.29154494,0.141362118 3.29727671,0.0855762353 3.28749318,0.024108 L3.28961788,0.021588 C3.39960847,0.034188 3.51429318,-0.00371082353 3.62630965,0.0493574118 C3.63757553,0.0962491765 3.64859435,0.142103294 3.65966259,0.188006824 L3.61000376,0.403096235 C3.55836847,0.435362118 3.54226024,0.478943294 3.56746024,0.535865647 C3.55016612,0.607364471 3.532872,0.678912706 3.51552847,0.750510353 C3.46730259,0.780256235 3.43814965,0.815388 3.48192847,0.870828 C3.47387435,0.912284471 3.46582024,0.953790353 3.45776612,0.995246824 C3.41156612,1.02899506 3.39086259,1.07104447 3.41477788,1.12757153 C3.39852141,1.19936682 3.38221553,1.27116212 3.36595906,1.34295741 C3.31249553,1.37423506 3.29584376,1.41761859 3.32237788,1.47528212 C3.31402729,1.52064212 3.30562729,1.56605153 3.29722729,1.61146094 C3.25685788,1.63927976 3.24420847,1.67495506 3.26634494,1.72046329 C3.24618494,1.79952212 3.22602494,1.87858094 3.20581553,1.95763976 C3.158232,1.98239506 3.14928847,2.019948 3.16974494,2.06713624 C3.15526729,2.14001859 3.14078965,2.21280212 3.126312,2.28563506 C3.072552,2.31459035 3.05174965,2.355948 3.077592,2.41489624 C3.06894494,2.46000918 3.06024847,2.50512212 3.05160141,2.55028447 C2.986032,2.62529153 2.95638494,2.71027976 2.97941082,2.80984447 C2.97298729,2.83875035 2.96656376,2.86770565 2.96014024,2.89661153 C2.83186729,2.98140212 2.68012376,2.92284918 2.54478494,2.96460212 C2.45159435,2.90367741 2.48129082,2.79042565 2.43612847,2.70899506 C2.45618965,2.66264682 2.44215671,2.62711976 2.40158965,2.59999271 C2.39536376,2.57069153 2.38913788,2.54148918 2.38296141,2.512188 C2.40761788,2.45511741 2.39259671,2.41128918 2.33883671,2.38045624 C2.321592,2.30885859 2.30434729,2.23716212 2.28710259,2.16556447 C2.30592847,2.11783271 2.29728141,2.08008212 2.24786965,2.05695741 C2.24035906,2.02819976 2.23284847,1.99949153 2.22533788,1.97078329 C2.25374965,1.86948918 2.22385553,1.78440212 2.15324612,1.71063035 C2.14731671,1.68137859 2.14143671,1.65217624 2.13555671,1.62292447 C2.15729788,1.52291506 2.11678024,1.44123741 2.05961082,1.36440212 C2.05313788,1.33500212 2.04666494,1.30555271 2.04024141,1.27610329 C2.05807906,1.22891506 2.05017318,1.19091741 2.00145318,1.16749624 C1.99458494,1.13868918 1.98771671,1.10983271 1.98084847,1.08102565 C2.00392376,0.980472706 1.97813082,0.894100941 1.90549553,0.821268 C1.90055435,0.791966824 1.89561318,0.762715059 1.89072141,0.733413882 C1.90786729,0.668635059 1.92022024,0.605931529 1.82609082,0.580583294 C1.75167671,0.629451529 1.71501318,0.692599765 1.74352376,0.784011529 L1.71516141,0.919646824 C1.65314965,0.972912706 1.61134729,1.03240447 1.65423671,1.11788682 C1.64993788,1.14432212 1.64563906,1.17080682 1.64134024,1.19734094 C1.54271435,1.34063506 1.50026965,1.50112447 1.49582259,1.67322565 C1.49023906,1.70213153 1.48465553,1.73103741 1.479072,1.75994329 C1.41538024,1.83079976 1.37258965,1.90778329 1.40579435,2.007348 C1.40090259,2.03333859 1.39596141,2.05937859 1.39106965,2.08536918 C1.32999671,2.13008682 1.31319671,2.189628 1.33231906,2.26112682 C1.320312,2.31829624 1.30830494,2.37546565 1.29624847,2.43263506 C1.24006729,2.46144212 1.22395906,2.50467741 1.24915906,2.56288447 C1.23962259,2.60809624 1.23008612,2.653308 1.22059906,2.69847035 C1.14929788,2.75386094 1.12810024,2.82437153 1.15670965,2.90995271 C1.13269553,2.93075506 1.10873082,2.951508 1.08476612,2.97231035 C0.978777882,2.93332447 0.872048471,2.93994565 0.765022588,2.96727035 C0.752323765,2.95975976 0.739377882,2.95254565 0.726333176,2.945628 C0.725839059,2.88761859 0.720897882,2.83148682 0.662592,2.79843035 C0.657354353,2.76942565 0.652067294,2.74042094 0.646829647,2.71141624 C0.671733176,2.61180212 0.642679059,2.52671506 0.576862588,2.45151035 C0.568264941,2.40624918 0.559716706,2.36093859 0.551119059,2.31567741 C0.578295529,2.25811271 0.561050824,2.21517388 0.507834353,2.18404447 C0.501806118,2.15795506 0.495728471,2.13186565 0.489700235,2.10577624 C0.519149647,1.99336447 0.494592,1.89473859 0.414446118,1.81024447 C0.408072,1.78148682 0.401697882,1.75277859 0.395373176,1.72407035 C0.424377882,1.62312212 0.389690824,1.53931976 0.325307294,1.46352212 C0.320514353,1.43397388 0.315770824,1.40432682 0.310928471,1.37467976 C0.333904941,1.302588 0.327086118,1.24008212 0.254648471,1.19847741 C0.240220235,1.12559506 0.225792,1.05271271 0.211413176,0.979830353 C0.236168471,0.923105647 0.216700235,0.880908 0.168227294,0.848246824 C0.160420235,0.806197412 0.152613176,0.764246824 0.144855529,0.722197412 C0.181963765,0.622879765 0.130229647,0.548712706 0.0749378824,0.475533882 C0.0697002353,0.446331529 0.0644625882,0.417079765 0.0592249412,0.387926824 C0.0795825882,0.341282118 0.0759755294,0.302197412 0.0246861176,0.278133882 C0.0164837647,0.249672706 0.008232,0.221211529 -1.97647059e-05,0.192700941 C0.0270084706,0.145957412 0.008232,0.0809315294 0.0763708235,0.0305809412 C0.166152,0.00893858824 0.275895529,0.0260844706 0.384601412,0.024948 C0.394681412,0.0550397647 0.404810824,0.0851809412 0.414940235,0.115223294 C0.385441412,0.215232706 0.415088471,0.300171529 0.480954353,0.375969176 C0.487921412,0.421773882 0.494937882,0.467529176 0.501904941,0.513284471 C0.476803765,0.584783294 0.482140235,0.647635059 0.552947294,0.691660941 C0.557937882,0.718145647 0.562928471,0.744630353 0.567869647,0.771164471 C0.530810824,0.810298588 0.540940235,0.842465647 0.582495529,0.869988 L0.601667294,0.957545647 C0.578839059,1.00379506 0.585904941,1.04139741 0.633241412,1.06748682 C0.642530824,1.11250094 0.651770824,1.15751506 0.661010824,1.20247976 C0.623606118,1.31993153 0.663679059,1.41944682 0.732855529,1.51219271 C0.740563765,1.55735506 0.748321412,1.60251741 0.756029647,1.64772918 C0.732213176,1.69467035 0.736512,1.73345859 0.788097882,1.75865859 C0.808307294,1.85392447 0.828615529,1.94914094 0.848874353,2.04440682 C0.821055529,2.16156212 0.864340235,2.25663035 0.936777882,2.36365624 C1.02181553,2.25781624 1.06006024,2.15988212 1.04316141,2.04307271 C1.05230259,1.99795976 1.06144376,1.95289624 1.07058494,1.90778329 C1.13259671,1.84997153 1.16837082,1.78385859 1.13724141,1.69659741 C1.146432,1.65168212 1.155672,1.60671741 1.16486259,1.56175271 C1.21002494,1.53699741 1.22010494,1.499988 1.20251435,1.45339271 C1.22277318,1.37423506 1.243032,1.29497859 1.26334024,1.21577153 C1.31294965,1.19299271 1.31858259,1.15445153 1.30178259,1.10795506 C1.30731671,1.07806094 1.31294965,1.04826565 1.31853318,1.01842094 C1.37762965,0.959620941 1.41715906,0.894693882 1.38459671,0.807235059 C1.39428141,0.762319765 1.40396612,0.717355059 1.41365082,0.672390353 C1.45826965,0.648376235 1.47146259,0.612750353 1.45298259,0.565463294 C1.47225318,0.485811529 1.49152376,0.406110353 1.51084376,0.326409176 C1.55916847,0.303136235 1.56618494,0.265138588 1.54918729,0.218642118 L1.56598729,0.129009176 C1.60329318,0.104846824 1.61777082,0.0704562353 1.61174259,0.0268256471 L1.612632,0.0259362353 C1.758792,0.0247503529 1.90554494,0.00740682353 2.05051906,0.0413032941" id="Fill-3" fill="#2DB24B" mask="url(#mask-4)"></path>
                    </g>
                    <path d="M8.39662518,19.0188847 C8.546244,18.9902753 8.67382518,18.9766871 8.79987459,19.0246165 C8.76281576,19.6216588 8.32986988,20.0816329 7.75866988,20.1652871 C6.89386518,20.2920282 6.30240635,19.7595176 6.20644871,18.9355765 C6.168204,18.6074824 6.17235459,18.2814141 6.27686047,17.9597929 C6.59645576,16.9762518 7.65342282,16.8320682 8.28653576,17.19984 C8.57065341,17.3648753 8.75500871,17.6260659 8.79705812,17.9767412 C8.66117576,18.0257082 8.53957341,18.0026824 8.41960165,18.0015953 C8.34054282,17.9389412 8.33397106,17.8411059 8.28950047,17.7647647 C8.16913341,17.5584706 7.99895929,17.4394871 7.76020165,17.4062329 C7.11221576,17.3161553 6.75640165,17.6837294 6.66237106,18.1475082 C6.58602988,18.5240259 6.57288635,18.8999012 6.71692165,19.2640165 C6.90942988,19.7506729 7.45631929,19.9645765 7.91713341,19.7448424 C8.15174047,19.6330235 8.26518988,19.4287059 8.35022753,19.2008188 C8.36989341,19.1479976 8.37858988,19.0910753 8.39662518,19.0188847" id="Fill-6" fill="#2DB24B"></path>
                    <path d="M16.7378499,17.4606254 C16.680384,17.7131195 16.6828052,18.291336 16.7365652,18.4902678 C17.0347158,18.4902678 17.3377581,18.4916513 17.6407016,18.4885878 C17.6798852,18.4881925 17.7194146,18.4663031 17.7577581,18.4516772 C17.9908334,18.3624889 18.0823934,18.2052607 18.0660875,17.9240584 C18.0522522,17.6857454 17.9412734,17.5465031 17.7002428,17.4939289 C17.3837111,17.4248019 17.0640664,17.474856 16.7378499,17.4606254 L16.7378499,17.4606254 Z M16.2866711,17.1508631 C16.3582193,17.0996231 16.4169699,17.1070842 16.4738922,17.1070348 C16.8519911,17.1065901 17.2301887,17.1007595 17.6080899,17.1086654 C17.9805558,17.1164231 18.2796452,17.2534913 18.4260522,17.6255619 C18.6082828,18.0886489 18.3867205,18.6438395 17.9562946,18.8033407 C17.8304922,18.849936 17.6995016,18.8551736 17.5676216,18.8550254 C17.2977346,18.8548278 17.0278475,18.854976 16.7502028,18.854976 C16.6696122,19.0638395 16.7155652,19.2617336 16.7079558,19.4540936 C16.7000993,19.6503572 16.7061769,19.8472136 16.7061769,20.0449101 C16.5624875,20.1217948 16.4318922,20.1110231 16.2866711,20.0619078 L16.2866711,17.1508631 Z" id="Fill-8" fill="#2DB24B"></path>
                    <path d="M11.0344327,20.071632 C10.8976609,20.1072085 10.7947856,20.110272 10.7009527,20.0791426 C10.6397315,20.0144132 10.6588539,19.9453355 10.6586068,19.8817426 C10.6570256,19.5279544 10.6579151,19.1741661 10.6579645,18.8203779 C10.6579645,18.7710155 10.6587551,18.7216532 10.6577174,18.6722908 C10.650948,18.3477544 10.5432798,18.1993214 10.2967151,18.1739732 C10.0269762,18.1462038 9.75901624,18.3260626 9.69626329,18.5824108 C9.66681388,18.7026791 9.664788,18.8266532 9.66518329,18.9504296 C9.66636918,19.3120744 9.66557859,19.6737191 9.66557859,20.0344744 C9.55064682,20.1338414 9.42864918,20.0919402 9.31287741,20.0877896 C9.26163741,19.9066461 9.25180447,17.389512 9.30082094,17.1219967 C9.40720447,17.0859261 9.51630565,17.0883967 9.65055741,17.1321261 C9.68865388,17.4363049 9.64749388,17.7471049 9.67244682,18.0470838 C9.75348212,18.0911096 9.78876212,18.0305308 9.83140447,17.9994014 C9.94776918,17.914512 10.0799951,17.8707826 10.2195833,17.8513638 C10.6573221,17.7907355 10.9876398,18.0398696 11.0215856,18.4797332 C11.0620045,19.003992 11.033988,19.5297826 11.0344327,20.071632" id="Fill-10" fill="#2DB24B"></path>
                    <path d="M12.8869885,19.0322012 C12.6412144,19.0790435 12.4091273,19.1192153 12.1789179,19.1683306 C11.9530073,19.2164576 11.8255249,19.3722529 11.8495885,19.5564106 C11.8731085,19.7363188 12.0429861,19.8555 12.2705767,19.8439376 C12.7836191,19.8177988 12.9913461,19.4571424 12.8869885,19.0322012 M13.2823814,19.7439776 C13.3534355,19.8489282 13.4387696,19.8189353 13.4879838,19.8742271 C13.5210896,19.9504694 13.5159508,20.0295282 13.4857602,20.1076976 C13.2028779,20.2161565 13.1358261,20.1923894 12.8847649,19.8886059 C12.7975038,19.9416247 12.7108355,20.0012153 12.6181391,20.0493918 C12.3733038,20.1765282 12.1175485,20.2121047 11.8573955,20.1032012 C11.6042096,19.9972129 11.4721814,19.7971941 11.4700567,19.5251824 C11.4680308,19.2677965 11.5714496,19.0636765 11.8152967,18.9459282 C11.9355649,18.88782 12.0607744,18.8539729 12.1928026,18.8381612 C12.3479061,18.8196318 12.5021202,18.7936906 12.6572732,18.7757541 C12.7696849,18.7627094 12.8697932,18.7390412 12.8986496,18.6079518 C12.924492,18.4908459 12.8618379,18.32586 12.7641014,18.2573753 C12.4832449,18.0606176 12.106332,18.1733753 11.9747485,18.49302 C11.9654591,18.5155518 11.9507344,18.5357612 11.9348238,18.5634812 C11.8269085,18.6016271 11.7156826,18.5950553 11.5905226,18.5722271 C11.5739696,18.3232412 11.6514967,18.1251494 11.8629296,18.0038435 C12.2430049,17.7856412 12.6347908,17.8007612 13.0199555,17.9918859 C13.2188873,18.0906106 13.2833696,18.2738294 13.2829249,18.4860529 C13.2821344,18.8316882 13.2824802,19.1773729 13.2823814,19.5230576 C13.282332,19.6044882 13.2823814,19.6859188 13.2823814,19.7439776" id="Fill-12" fill="#2DB24B"></path>
                    <path d="M20.2613831,19.0297899 C20.1781736,19.0480228 20.1075148,19.0648722 20.0363125,19.0788064 C19.9638254,19.0929381 19.8904489,19.1028699 19.8179619,19.1171499 C19.7053031,19.1393358 19.5896795,19.1535664 19.4813195,19.1893899 C19.3039313,19.2480416 19.2038231,19.4089758 19.2303572,19.5661546 C19.2551125,19.7128087 19.3914395,19.8242322 19.5670984,19.8368816 C20.0039478,19.8683075 20.3910889,19.5938252 20.2613831,19.0297899 M20.2551572,19.8777946 C20.0286042,20.0556275 19.8015078,20.1733264 19.5201078,20.1628511 C19.1723478,20.1499052 18.9071548,19.9470699 18.8553219,19.6196181 C18.8106042,19.3369828 18.924696,19.0275169 19.3114913,18.8962793 C19.5329054,18.821124 19.7664254,18.8300675 19.9918913,18.7821381 C20.2211125,18.7333687 20.2657313,18.7129616 20.2799125,18.5790558 C20.2979972,18.4085358 20.2015454,18.2642534 20.028456,18.202884 C19.7031289,18.0875569 19.4845807,18.1964605 19.3096136,18.5680864 C19.2031807,18.6015381 19.0920536,18.5957569 18.9812231,18.5705569 C18.9609148,18.244884 19.0833078,18.0427899 19.3719713,17.9321569 C19.6861807,17.8116911 20.0044913,17.8231052 20.3131172,17.945004 C20.5394725,18.0343405 20.6619148,18.2091593 20.6595925,18.4628887 C20.6563807,18.8086228 20.6585548,19.1543569 20.6584066,19.5001405 C20.6583572,19.5896746 20.6584066,19.6792581 20.6584066,19.717404 C20.715576,19.8499264 20.8154866,19.8178581 20.8679619,19.8749287 C20.8942489,19.9538887 20.8953854,20.0336393 20.8608466,20.1118087 C20.5707501,20.2127075 20.5211901,20.1943758 20.2551572,19.8777946" id="Fill-14" fill="#2DB24B"></path>
                    <path d="M5.43372776,18.7885666 C5.47874188,18.4469831 5.26004541,18.2048654 4.93313718,18.1702772 C4.61744541,18.1369242 4.22926659,18.3928772 4.27561482,18.785256 C4.65998894,18.792816 5.04871129,18.7884678 5.43372776,18.7885666 M5.84532776,19.0988231 C5.31266894,19.1109784 4.78984306,19.0950678 4.27121718,19.1085078 C4.25832071,19.480776 4.40541953,19.740336 4.65094659,19.8182584 C4.96614424,19.9183666 5.20495129,19.8068936 5.49158894,19.4220254 C5.59204306,19.4055219 5.69664776,19.4010748 5.82768776,19.4327972 C5.75930188,19.7262536 5.60237012,19.9483101 5.33678188,20.0630936 C4.59516071,20.3836278 3.92696541,19.9300772 3.87320541,19.227936 C3.84271835,18.8291831 3.88837482,18.4544936 4.18267129,18.1516984 C4.45344776,17.8731148 4.78188776,17.7905478 5.153316,17.8907054 C5.52929012,17.9920984 5.76241482,18.2316466 5.82862659,18.6227901 C5.85313482,18.7676654 5.89157718,18.9114042 5.84532776,19.0988231" id="Fill-16" fill="#2DB24B"></path>
                    <g id="Group-20" transform="translate(21.049412, 17.911221)">
                        <mask id="mask-6" fill="white">
                            <use xlink:href="#path-5"></use>
                        </mask>
                        <g id="Clip-19"></g>
                        <path d="M0.0182181176,0.0235447059 C0.148171059,-0.00155647059 0.268389882,0.00338470588 0.409707529,0.0210741176 C0.588775765,0.560996471 0.768091059,1.10175882 0.945232235,1.63594941 C1.04781106,1.62927882 1.05675459,1.5687 1.07419694,1.51533529 C1.21442753,1.08594706 1.35574518,0.656855294 1.49394988,0.226775294 C1.51682753,0.155671765 1.53995224,0.0868905882 1.58906753,0.0242364706 C1.71081812,0.000370588235 1.83078988,-0.00427411765 1.97452871,0.0349094118 C1.87031929,0.327229412 1.76843224,0.609617647 1.66891694,0.892845882 C1.481004,1.42758 1.28844635,1.96063412 1.06634047,2.48237294 C1.02132635,2.58806471 0.971025176,2.69271882 0.912027529,2.79119647 C0.757368706,3.04922471 0.513472235,3.12502235 0.208107529,3.01379647 C0.161759294,2.93290941 0.165316941,2.84703176 0.193432235,2.76298235 C0.213839294,2.75176588 0.228119294,2.73694235 0.241756941,2.73748588 C0.389992235,2.74326706 0.545787529,2.76792353 0.634382824,2.60491412 C0.729549882,2.42984824 0.801048706,2.26120588 0.718432235,2.04532588 C0.471867529,1.40119412 0.244968706,0.749502353 0.0113992941,0.100478824 C0.00650752941,0.0867423529 0.0137710588,0.0687070588 0.0182181176,0.0235447059" id="Fill-18" fill="#2DB24B" mask="url(#mask-6)"></path>
                    </g>
                    <path d="M13.6635141,17.9550346 C13.7585824,17.8960369 13.8531071,17.9448558 13.9394788,17.8676746 C13.9775753,17.7182534 13.9311776,17.5437311 13.9627024,17.3724205 C14.0647871,17.2865428 14.1797682,17.3260722 14.2981094,17.3272087 C14.3852718,17.5080558 14.2988506,17.7042699 14.3541424,17.8783475 C14.4445165,17.9551334 14.5547047,17.8899099 14.6581729,17.9448064 C14.7131682,18.0242111 14.6904882,18.1170558 14.6655847,18.2039216 C14.5718506,18.2770016 14.4603282,18.2145452 14.3681753,18.2716158 C14.3604671,18.2900958 14.3433212,18.3123311 14.3431235,18.3347146 C14.3400106,18.7545169 14.3356624,19.1743687 14.3391212,19.5941216 C14.3403071,19.7384534 14.3800835,19.7727452 14.5282694,19.8037264 C14.5675518,19.8119287 14.6080694,19.8140534 14.6470553,19.8188464 C14.7077329,19.9096652 14.6958741,19.9948016 14.6633118,20.0791475 C14.2677212,20.2651828 13.9619118,20.0839899 13.9537094,19.6551946 C13.9464459,19.2766016 13.9533141,18.8977616 13.9509918,18.5190699 C13.9505471,18.4390722 13.9732271,18.3539852 13.9224812,18.2854511 C13.8568624,18.2241805 13.7737024,18.2595099 13.6909376,18.2206228 C13.6203282,18.1490746 13.6497282,18.0525734 13.6635141,17.9550346" id="Fill-21" fill="#2DB24B"></path>
                </g>
            </g>
        </g>
    </g>
</svg>