<?xml version="1.0" encoding="UTF-8"?>
<!DOCTYPE svg PUBLIC "-//W3C//DTD SVG 1.1//EN" "http://www.w3.org/Graphics/SVG/1.1/DTD/svg11.dtd">
<!-- Creator: CorelDRAW -->
<svg xmlns="http://www.w3.org/2000/svg" xml:space="preserve" width="1.18249in" height="0.994504in" style="shape-rendering:geometricPrecision; text-rendering:geometricPrecision; image-rendering:optimizeQuality; fill-rule:evenodd; clip-rule:evenodd"
viewBox="0 0 0.0655221 0.0551058"
 xmlns:xlink="http://www.w3.org/1999/xlink">
 <defs>
  <style type="text/css">
   <![CDATA[
    .fil0 {fill:#A42926}
   ]]>
  </style>
 </defs>
 <g id="Layer_x0020_1">
  <metadata id="CorelCorpID_0Corel-Layer"/>
  <path class="fil0" d="M0.0358675 0.0271788l0.00016994 -0.000509164 5.65011e-005 -0.000509383 -5.65011e-005 -0.000509164 -0.00016994 -0.000452663 -0.000226223 -0.000452663 -0.000339443 -0.000339661 -0.000339661 -0.000339225 -0.000452445 -0.000226441 -0.000452881 -0.00016994 -0.000509164 -5.65011e-005 -0.000509383 5.65011e-005 -0.000509164 0.00016994 -0.000395944 0.000226441 -0.000396162 0.000339225 -0.000282942 0.000339661 -0.000282942 0.000452663 -0.000113002 0.000452663 -5.67193e-005 0.000509164 5.67193e-005 0.000509383 0.000113002 0.000509164 0.000282942 0.000396162 0.000282942 0.000395944 0.000396162 0.00028316 0.000395944 0.000282724 0.000509164 0.00011322 0.000509383 5.65011e-005 0.000509164 -5.65011e-005 0.000452881 -0.00011322 0.000452445 -0.000282724 0.000339661 -0.00028316 0.000339443 -0.000395944 0.000226223 -0.000396162zm-0.0358675 0.027927l0.0655221 0 -0.0319316 -0.0551058 -0.0176244 0 -0.015966 0.0551058zm0.0616761 -0.00221641l-0.0587262 0 0.0146816 -0.050673 0.0146818 0 0.0293629 0.050673zm-0.0225832 -0.0152991l-0.000509164 0.000905327 -0.000622385 0.000848825 -0.000622603 0.000848607 -0.000678886 0.000735605 -0.000792324 0.000679104 -0.000792106 0.000565884 -0.000905327 0.000565665 -0.000905327 0.000452881 -0.000961828 0.000395944 -0.000962046 0.000339661 -0.00101833 0.000226223 -0.00107527 0.00011322 -0.00107505 5.65011e-005 -0.00101855 -5.65011e-005 -0.00101833 -0.00011322 -0.00101877 -0.000226223 -0.000961828 -0.000282942 -0.000962046 -0.000396162 -0.000905327 -0.000396162 -0.000848607 -0.000565665 -0.000792106 -0.000565884 -0.000735823 -0.000622603 -0.000735605 -0.000735605 -0.000622167 -0.000792106 -0.000565884 -0.000792106 -0.000565884 -0.000905327 -0.000396162 -0.000905327 -0.000396162 -0.000962046 -0.000282724 -0.00101833 -5.67193e-005 -0.000226441 -0.000169721 -0.000226441 -0.00011322 -0.000169721 -0.000226441 -0.000169721 -0.000226223 -0.000113002 -0.000226223 -5.67193e-005 -0.000226441 0 -0.000282942 0 -0.000226223 0.00011322 -0.000226441 0.00011322 -0.000169721 0.000169721 -0.000169721 0.000226223 -0.00011322 0.00016994 -5.65011e-005 0.000282724 0 0.000226441 5.65011e-005 0.000226441 0.000339443 0.00124477 0.000396162 0.00118827 0.000565884 0.00107505 0.000622385 0.00107505 0.000679104 0.00101855 0.000792106 0.000905327 0.000848825 0.000848607 0.000905327 0.000792324 0.000961828 0.000735605 0.00107527 0.000622385 0.00107505 0.000509383 0.00113155 0.000452445 0.00113177 0.00039638 0.00124477 0.000226223 0.00124499 0.000169721 0.00124477 5.65011e-005 0.00130149 -5.65011e-005 0.00130127 -0.000169721 0.00118849 -0.000282942 0.00118805 -0.000396162 0.00118827 -0.000452663 0.00107527 -0.000565884 0.00107505 -0.000678886 0.000961828 -0.000735605 0.000961828 -0.000792324 0.000848825 -0.000905327 0.000792106 -0.000961828 0.000679104 -0.00101855 0.000622385 -0.00113177 0.000509383 -0.00113155 0.000395944 -0.00118805 0.000339661 -0.00124499 0 -0.000282942 0 -0.000226441 -5.67193e-005 -0.000282942 -0.00011322 -0.000169721 -0.000169721 -0.000226223 -0.000226223 -0.00011322 -0.000169721 -0.00016994 -0.000282942 -5.65011e-005 -0.000226441 0 -0.000282724 0 -0.000226441 5.65011e-005 -0.000169721 0.000113439 -0.000226441 0.000169721 -0.000169721 0.000169721 -0.000113002 0.000226223 -5.67193e-005 0.000282942 -0.000282942 0.00101855 -0.000339443 0.000962046 -0.000396162 0.000961828zm-0.0128445 -0.0108641l0.00011322 -0.000339443 0.000169721 -0.000339443 5.65011e-005 -0.000396162 5.67193e-005 -0.000339443 5.65011e-005 -0.000396162 -5.65011e-005 -0.000282942 -5.67193e-005 -0.000226441 -0.000113002 -0.000226223 -0.000169721 -0.000169721 -0.000169721 -0.000169721 -0.000226659 -0.00011322 -0.000226223 -5.67193e-005 -0.000282724 -5.65011e-005 -0.000226441 5.65011e-005 -0.000226441 5.67193e-005 -0.000226223 0.00011322 -0.000169721 0.000169721 -0.000169721 0.000169721 -0.000113439 0.000226223 -0.000113002 0.000226441 0 0.000282942 0 0.000226441 -0.00011322 0.000282724 -0.00011322 0.00016994 -0.000169503 0.000226223 -0.000169721 0.00011322 -0.000226659 0.000169721 -0.000226223 5.65011e-005 -0.000282942 0 -0.000226223 0 -0.000226441 -5.65011e-005 -0.000226223 -0.000169721 -0.000169721 -0.00011322 -0.00016994 -0.000226223 -0.00011322 -0.00016994 -0.000113002 -0.000282724 0 -0.000226441 0 -0.000282942 -0.00011322 -0.000226441 -0.00011322 -0.000226223 -0.000169721 -0.000169721 -0.000169721 -0.000169721 -0.000226441 -0.00011322 -0.000226223 -5.67193e-005 -0.000226223 -5.65011e-005 -0.00028316 5.65011e-005 -0.000226223 5.67193e-005 -0.000226223 0.00011322 -0.000169721 0.000169721 -0.00016994 0.000169721 -0.00011322 0.000226223 -5.65011e-005 0.000226441 -5.65011e-005 0.000282942 5.65011e-005 0.000396162 5.65011e-005 0.000339443 5.67193e-005 0.000396162 0.00011322 0.000339443 0.000169721 0.000339443 0.000226223 0.000282942 0.000226441 0.000339661 0.000226441 0.000226223 0.000282942 0.000282724 0.000282724 0.000226659 0.000282942 0.000169721 0.000339443 0.000169721 0.000339443 0.000113002 0.000396162 0.00011322 0.000396162 5.65011e-005 0.000339443 0 0.000396162 0 0.000396162 -5.65011e-005 0.000339443 -0.00011322 0.000396162 -0.000113002 0.000339443 -0.000169721 0.000282724 -0.000169721 0.00028316 -0.000226659 0.000282942 -0.000282724 0.000226223 -0.000226223 0.000226441 -0.000339661 0.000226223 -0.000282942z"/>
 </g>
</svg>
