<?xml version="1.0" encoding="UTF-8"?>
<!DOCTYPE svg PUBLIC "-//W3C//DTD SVG 1.1//EN" "http://www.w3.org/Graphics/SVG/1.1/DTD/svg11.dtd">
<!-- Creator: CorelDRAW -->
<svg xmlns="http://www.w3.org/2000/svg" xml:space="preserve" width="1.0492in" height="0.827406in" style="shape-rendering:geometricPrecision; text-rendering:geometricPrecision; image-rendering:optimizeQuality; fill-rule:evenodd; clip-rule:evenodd"
viewBox="0 0 0.058764 0.0463418"
 xmlns:xlink="http://www.w3.org/1999/xlink">
 <defs>
  <style type="text/css">
   <![CDATA[
    .fil0 {fill:#A42926}
   ]]>
  </style>
 </defs>
 <g id="Layer_x0020_1">
  <metadata id="CorelCorpID_0Corel-Layer"/>
  <path class="fil0" d="M0.0396951 0.0203748l-0.00777836 0.0045755 -0.000228665 0.000171774 -0.000171554 0.000171554 -0.000114443 0.000228665 -5.73316e-005 0.000228665 -5.71111e-005 0.000229106 0 0.000228665 5.71111e-005 0.000285776 0.000114443 0.000228885 0.000228885 0.000285997 0.000228665 0.000171554 0.000343328 0.000114443 0.000285776 5.71111e-005 0.000228885 0 0.000228665 -0.000114222 0.000114663 0.000228665 0.000285776 0.00045755 0.000400219 0.000343108 0.00040066 0.000228885 0.00045733 0.000171554 0.000514882 5.71111e-005 0.00045755 0 0.000514662 -0.000114222 0.000457771 -0.000228885 0.00045733 -0.000285997 0.000343328 -0.000400219 0.000228665 -0.000400439 0.000171554 -0.00045755 5.71111e-005 -0.000514662 0 -0.000457771 -0.000114222 -0.000514662 -0.000228885 -0.00045755 -0.000114222 -0.000171554 0.00360329 -0.0021162 0.000228665 -0.000171774 0.000171554 -0.000171554 0.000114443 -0.000228665 5.73316e-005 -0.000228665 5.71111e-005 -0.000228885 0 -0.000228885 -5.71111e-005 -0.000285776 -0.000114443 -0.000228885 -0.000171774 -0.000171554 -0.000171554 -0.000171554 -0.000228665 -0.000171554 -0.000228665 -5.73316e-005 -0.000229106 -5.71111e-005 -0.000228665 0 -0.000228665 5.71111e-005 -0.000286217 0.000114443zm-0.0239051 -0.0203748l-0.01579 0.0463418 0.058764 0 -0.0132544 -0.0457484 -0.0297196 -0.000593382zm0.0015925 0.00227254l0.0264341 0.000527892 0.011966 0.041301 -0.0526525 0 0.0142524 -0.0418289zm0.0125898 0.0307994l-0.000743768 0 -0.000743547 5.73316e-005 -0.000743547 5.71111e-005 -0.000743547 0.000171554 -0.000743547 0.000114443 -0.000743326 0.000228665 -0.000743547 0.000171554 -0.000686215 0.000285997 -0.000686436 0.000286217 -0.000686436 0.000285776 -0.000686436 0.000400439 -0.000628884 0.000343108 -0.000629104 0.000400219 -0.000629325 0.000457771 -0.000571993 0.00045755 -0.000571773 0.000514662 -0.000171554 0.000171554 -0.000114443 0.000228885 -0.000114443 0.000228885 -5.71111e-005 0.000228665 5.71111e-005 0.000285997 5.71111e-005 0.000228885 0.000114443 0.000228665 0.000114443 0.000228665 0.000228885 0.000171554 0.000228665 0.000114663 0.000228665 5.71111e-005 0.000286217 5.73316e-005 0.000228665 0 0.000228665 -0.000114443 0.000228885 -5.73316e-005 0.000171554 -0.000171554 0.000972432 -0.000800879 0.00108665 -0.000743547 0.00108665 -0.000571773 0.00114377 -0.000514882 0.0012011 -0.000400219 0.00125843 -0.000286217 0.00125821 -0.000171554 0.00125843 -0.000114222 0.00131532 5.71111e-005 0.00125821 0.000228665 0.0012011 0.000286217 0.00120132 0.000400219 0.00114377 0.000457771 0.00114377 0.000628884 0.00102976 0.000743547 0.000972212 0.000800879 0.000228665 0.000114222 0.000228665 0.000114663 0.000229106 5.71111e-005 0.000228665 5.73316e-005 0.000285776 -5.73316e-005 0.000229106 -0.000114443 0.000171554 -0.000114443 0.000228665 -0.000171554 0.000171554 -0.000171554 5.71111e-005 -0.000228665 5.73316e-005 -0.000286217 5.71111e-005 -0.000228665 -5.71111e-005 -0.000228665 -5.73316e-005 -0.000228885 -0.000171554 -0.000228885 -0.000171554 -0.000171554 -0.000571993 -0.000514662 -0.000571773 -0.00045755 -0.000629104 -0.000457771 -0.000629325 -0.000400219 -0.000629104 -0.000400439 -0.000686436 -0.000343108 -0.00137243 -0.000571993 -0.00142998 -0.000514662 -0.000686436 -0.000171554 -0.000743547 -0.000114443 -0.000743326 -0.000171554 -0.000743547 -5.71111e-005 -0.000743547 -5.73316e-005 -0.000800658 0zm-0.00154443 -0.00777836l-0.000171554 -0.000171554 -0.000228665 -0.000171774 -0.00777858 -0.0045755 -0.000285997 -0.000114443 -0.000228665 -5.71111e-005 -0.000228885 0 -0.000228665 5.71111e-005 -0.000228885 5.73316e-005 -0.000228665 0.000171554 -0.000171774 0.000171554 -0.000171554 0.000171554 -0.000114222 0.000228885 -5.73316e-005 0.000285776 0 0.000228885 5.73316e-005 0.000228885 5.71111e-005 0.000228665 0.000114443 0.000228665 0.000171554 0.000171554 0.000228885 0.000171774 0.00360307 0.0021162 -0.000114222 0.000171554 -0.000228885 0.00045755 -0.000114443 0.000514662 0 0.000457771 5.71111e-005 0.000514662 0.000171774 0.00045755 0.000228665 0.000400439 0.000343108 0.000400219 0.000457771 0.000285997 0.00045733 0.000228885 0.000514882 0.000114222 0.00045755 0 0.000514662 -5.71111e-005 0.00045755 -0.000171554 0.000400219 -0.000228885 0.00040066 -0.000343108 0.000285776 -0.00045755 0.000114443 -0.000228665 0.000228885 0.000114222 0.000228665 0 0.000285997 -5.71111e-005 0.000343328 -0.000114443 0.000228665 -0.000171554 0.000228665 -0.000285997 0.000114443 -0.000228885 5.71111e-005 -0.000285776 0 -0.000228665 -5.71111e-005 -0.000229106 -5.71111e-005 -0.000228665 -0.000114443 -0.000228665z"/>
 </g>
</svg>
