<?xml version="1.0" encoding="UTF-8"?>
<!DOCTYPE svg PUBLIC "-//W3C//DTD SVG 1.1//EN" "http://www.w3.org/Graphics/SVG/1.1/DTD/svg11.dtd">
<!-- Creator: CorelDRAW -->
<svg xmlns="http://www.w3.org/2000/svg" xml:space="preserve" width="1.11306in" height="0.970398in" style="shape-rendering:geometricPrecision; text-rendering:geometricPrecision; image-rendering:optimizeQuality; fill-rule:evenodd; clip-rule:evenodd"
viewBox="0 0 0.0764923 0.0666885"
 xmlns:xlink="http://www.w3.org/1999/xlink">
 <defs>
  <style type="text/css">
   <![CDATA[
    .fil0 {fill:#A42926}
   ]]>
  </style>
 </defs>
 <g id="Layer_x0020_1">
  <metadata id="CorelCorpID_0Corel-Layer"/>
  <path class="fil0" d="M0.0250598 0.0432102l0.000561688 0.0015441 0.000701569 0.00147375 0.000842261 0.00133333 0.000912337 0.00133333 0.00112283 0.00119318 0.00119291 0.00105276 0.00126326 0.000982412 0.00140368 0.00084199 0.00140341 0.000701839 0.0015441 0.000561417 0.00161391 0.000420995 0.000842261 0.000140422 0.000842261 7.03462e-005 0.00084199 7.00757e-005 0.00084199 0 0.000842261 0 0.000842261 -7.00757e-005 0.00084199 -7.03462e-005 0.000842261 -0.000140422 0.00161391 -0.000420995 0.0015441 -0.000561417 0.00140341 -0.000701839 0.00140368 -0.00084199 0.00126326 -0.000982412 0.00119318 -0.00105276 0.00112256 -0.00119318 0.000912337 -0.00133333 0.000842261 -0.00133333 0.000701569 -0.00147375 0.000561688 -0.0015441 0.000420995 -0.00161391 0.000140151 -0.000771915 0.000140692 -0.000842261 7.00757e-005 -0.000842261 0 -0.000912066 -0.033405 0 0 0.000912066 7.00757e-005 0.000842261 0.000140422 0.000842261 0.000140422 0.000771915 0.000420995 0.00161391zm0.0479215 0.0207294l-0.0687202 0 0.0273246 -0.0603887 0.029461 0.0120979 0.0119345 0.0482908zm-0.042806 -0.0639396l-0.0301753 0.0666885 0.0764923 0 -0.0131115 -0.053053 -0.0332056 -0.0136355zm0.00814826 0.0269992l-0.000280573 -0.000421266 -0.000210768 -0.000350649 -0.000350649 -0.00035092 -0.00035092 -0.000280844 -0.00035092 -0.000280573 -0.00035092 -0.000210498 -0.000420995 -0.000210498 -0.000421266 -0.000140692 -0.000491071 -0.000140151 -0.000421266 -7.03462e-005 -0.000491071 0 -0.000491341 0 -0.000491341 7.03462e-005 -0.000420995 0.000140151 -0.000420995 0.000140692 -0.000420995 0.000210498 -0.000421266 0.000210498 -0.00035092 0.000280573 -0.000350649 0.000280844 -0.000280844 0.00035092 -0.000280573 0.000350649 -0.000210498 0.000421266 -0.000210498 0.000420995 -0.000210768 0.000420995 -7.03462e-005 0.000421266 -7.00757e-005 0.000491071 -7.00757e-005 0.000491341 7.00757e-005 0.000280844 7.00757e-005 0.000350649 0.000140422 0.000210768 0.000210768 0.000280573 0.000210498 0.000140422 0.000280573 0.000210498 0.000280573 7.00757e-005 0.00035119 0 0.000280573 0 0.00035092 -7.00757e-005 0.000210498 -0.000210498 0.000280844 -0.000140422 0.000140151 -0.000280573 0.000140422 -0.000210768 0.000140422 -0.000350649 0 -0.000280844 7.00757e-005 -0.00035092 7.00757e-005 -0.000280844 0.000140692 -0.000280573 0.000210498 -0.000210498 0.000210498 -0.000210498 0.000280573 -0.000140422 0.000280844 -7.03462e-005 0.00035092 -7.00757e-005 0.000280573 7.00757e-005 0.000280573 7.03462e-005 0.000281114 0.000140422 0.000280573 0.000210498 0.000140422 0.000210498 0.000140151 0.000280573 0.000140422 0.000280844 0 0.00035092 7.00757e-005 0.000280844 7.03462e-005 0.000350649 0.000140422 0.000210768 0.000210498 0.000280573 0.000210498 0.000140422 0.000280573 0.000210498 0.000280844 7.00757e-005 0.00035092 0 0.000280573 0 0.000280844 -7.00757e-005 0.000280573 -0.000210498 0.000210498 -0.000140422 0.000210498 -0.000280573 0.000140422 -0.000210768 0.000140422 -0.000350649 0 -0.000280844 0 -0.000491341 -7.03462e-005 -0.000491071 -0.000140151 -0.000421266 -0.000140422 -0.000420995 -0.000210498 -0.000420995zm0.00919344 0.000701569l0.000280573 -7.00757e-005 0.00035092 7.00757e-005 0.000280844 7.03462e-005 0.000280573 0.000140422 0.000210498 0.000210498 0.000210498 0.000210498 0.000140422 0.000280573 7.03462e-005 0.000280844 7.00757e-005 0.00035092 0 0.000280844 7.03462e-005 0.000350649 0.000210498 0.000210768 0.000140151 0.000280573 0.000280844 0.000140422 0.000210498 0.000210498 0.00035092 7.00757e-005 0.000280573 0 0.00035092 0 0.000280844 -7.00757e-005 0.000280844 -0.000210498 0.000210227 -0.000140422 0.000210498 -0.000280573 0.000140422 -0.000210768 7.03462e-005 -0.000350649 7.03462e-005 -0.000280844 -7.03462e-005 -0.000491341 -7.03462e-005 -0.000491071 -0.000140422 -0.000421266 -0.000140151 -0.000420995 -0.000210498 -0.000420995 -0.000210498 -0.000421266 -0.000280844 -0.000350649 -0.000280844 -0.00035092 -0.000350649 -0.000280844 -0.00035092 -0.000280573 -0.000421266 -0.000210498 -0.000420995 -0.000210498 -0.000420995 -0.000140692 -0.000420995 -0.000140151 -0.000491341 -7.03462e-005 -0.000491341 0 -0.000491071 0 -0.000421266 7.03462e-005 -0.000491071 0.000140151 -0.000421266 0.000140692 -0.000420725 0.000210498 -0.00035119 0.000210498 -0.000420995 0.000280573 -0.000280573 0.000280844 -0.00035092 0.00035092 -0.000280844 0.000350649 -0.000210498 0.000421266 -0.000210498 0.000420995 -0.000140422 0.000420995 -0.000140422 0.000421266 -7.00757e-005 0.000491071 0 0.000491341 0 0.000280844 0.000140422 0.000350649 0.000140422 0.000210768 0.000140151 0.000280573 0.000280844 0.000140422 0.000280573 0.000210498 0.000280844 7.00757e-005 0.000280573 0 0.00035092 0 0.000280844 -7.00757e-005 0.000280844 -0.000210498 0.000210227 -0.000140422 0.000210498 -0.000280573 0.000140422 -0.000210768 7.00757e-005 -0.000350649 7.03462e-005 -0.000280844 0 -0.00035092 7.03462e-005 -0.000280844 0.000210498 -0.000280573 0.000140151 -0.000210498 0.000280573 -0.000210498 0.000210768 -0.000140422 0.00035092 -7.03462e-005z"/>
 </g>
</svg>
