<?xml version="1.0" encoding="UTF-8"?>
<!DOCTYPE svg PUBLIC "-//W3C//DTD SVG 1.1//EN" "http://www.w3.org/Graphics/SVG/1.1/DTD/svg11.dtd">
<!-- Creator: CorelDRAW -->
<svg xmlns="http://www.w3.org/2000/svg" xml:space="preserve" width="1.11306in" height="0.970398in" style="shape-rendering:geometricPrecision; text-rendering:geometricPrecision; image-rendering:optimizeQuality; fill-rule:evenodd; clip-rule:evenodd"
viewBox="0 0 0.0925645 0.0807007"
 xmlns:xlink="http://www.w3.org/1999/xlink">
 <defs>
  <style type="text/css">
   <![CDATA[
    .fil0 {fill:#A42926}
   ]]>
  </style>
 </defs>
 <g id="Layer_x0020_1">
  <metadata id="CorelCorpID_0Corel-Layer"/>
  <path class="fil0" d="M0.031605 0.0366635l-8.47996e-005 0.000764178 8.47996e-005 0.000764178 0.000169927 0.000764506 0.000339526 0.000594252 0.000509452 0.000594907 0.000594579 0.000424325 0.000594252 0.000424653 0.000764506 0.000169599 0.000764506 8.5127e-005 0.000763851 -8.5127e-005 0.000679706 -0.000169599 0.000679051 -0.000424653 0.00050978 -0.000424325 0.000509452 -0.000594907 0.000339853 -0.000594252 0.000169927 -0.000764506 8.47996e-005 -0.000764178 -8.47996e-005 -0.000764178 -0.000169927 -0.000679379 -0.000339853 -0.000679379 -0.000509452 -0.000594579 -0.00050978 -0.000424653 -0.000679051 -0.000339526 -0.000679706 -0.000255054 -0.000763851 -8.47996e-005 -0.000764506 8.47996e-005 -0.000764506 0.000255054 -0.000594252 0.000339526 -0.000594579 0.000424653 -0.000509452 0.000594579 -0.000339526 0.000679379 -0.000169927 0.000679379zm-0.0157387 -0.020163l-0.0158664 0.0642002 0.0925645 0 -0.0365156 -0.0807007 -0.0401826 0.0165006zm0.0715417 0.0608737l-0.0831593 0 0.0144421 -0.0584374 0.0356512 -0.0146399 0.0330659 0.0730773zm-0.0370348 -0.0362101l0.000764178 8.5127e-005 0.000764506 -8.5127e-005 0.000764178 -0.000169599 0.000594252 -0.000424653 0.000594579 -0.000424325 0.000424653 -0.000594907 0.000424653 -0.000594252 0.000169599 -0.000764506 8.5127e-005 -0.000764178 -8.5127e-005 -0.000764178 -0.000169599 -0.000679379 -0.000424653 -0.000679379 -0.000424653 -0.000594579 -0.000594579 -0.000424653 -0.000594252 -0.000339526 -0.000764178 -0.000255054 -0.000764506 -8.47996e-005 -0.000764178 8.47996e-005 -0.000679706 0.000255054 -0.000679051 0.000339526 -0.00050978 0.000424653 -0.000509452 0.000594579 -0.000339526 0.000679379 -0.000255054 0.000679379 -8.47996e-005 0.000764178 8.47996e-005 0.000764178 0.000255054 0.000764506 0.000339526 0.000594252 0.000509452 0.000594907 0.00050978 0.000424325 0.000679051 0.000424653 0.000679706 0.000169599zm0.00781302 0.0129089l-0.0298933 0 -0.000339526 8.47996e-005 -0.00042498 8.5127e-005 -0.000254726 0.000169599 -0.000339526 0.000254726 -0.000169927 0.000254726 -0.000254726 0.000339853 -8.47996e-005 0.000339526 0 0.000339853 0 0.000424653 8.47996e-005 0.000339526 0.000254726 0.000339853 0.000169927 0.000254726 0.000339526 0.000254726 0.000254726 0.000169927 0.00042498 8.47996e-005 0.000339526 8.5127e-005 0.0133332 0 0 0.00331177 0 0.000594579 8.47996e-005 0.000594252 0.000169927 0.00050978 0.000254726 0.000509452 0.000254726 0.00050978 0.000339853 0.000424325 0.000424653 0.000424653 0.000424325 0.000424653 0.000424653 0.000339853 0.000594579 0.000339526 0.000509452 0.000254726 0.000594579 0.000255054 0.000594252 0.000169927 0.000679379 0.000169599 0.000679706 8.47996e-005 0.000679051 0 0.000679706 0 0.000679051 -8.47996e-005 0.000594907 -0.000169599 0.000594252 -0.000169927 0.000594579 -0.000255054 0.000594252 -0.000254726 0.00050978 -0.000339526 0.000424325 -0.000339853 0.000424653 -0.000424653 0.000424653 -0.000424653 0.000339853 -0.000424325 0.000254726 -0.00050978 0.000254726 -0.000509452 0.000169599 -0.00050978 8.5127e-005 -0.000594252 8.47996e-005 -0.000594579 0 -0.00331177 0.0031425 0 0.000339526 -8.5127e-005 0.000339853 -8.47996e-005 0.000339526 -0.000169927 0.000339853 -0.000254726 0.000169599 -0.000254726 0.000169927 -0.000339853 0.000169927 -0.000339526 0 -0.000424653 0 -0.000339853 -0.000169927 -0.000339526 -0.000169927 -0.000339853 -0.000169599 -0.000254726 -0.000339853 -0.000254726 -0.000339526 -0.000169599 -0.000339853 -8.5127e-005 -0.000339526 -8.47996e-005z"/>
 </g>
</svg>
