<?xml version="1.0" encoding="UTF-8"?>
<!DOCTYPE svg PUBLIC "-//W3C//DTD SVG 1.1//EN" "http://www.w3.org/Graphics/SVG/1.1/DTD/svg11.dtd">
<!-- Creator: CorelDRAW -->
<svg xmlns="http://www.w3.org/2000/svg" xml:space="preserve" width="0.94237in" height="0.844366in" style="shape-rendering:geometricPrecision; text-rendering:geometricPrecision; image-rendering:optimizeQuality; fill-rule:evenodd; clip-rule:evenodd"
viewBox="0 0 0.0416841 0.037349"
 xmlns:xlink="http://www.w3.org/1999/xlink">
 <defs>
  <style type="text/css">
   <![CDATA[
    .fil0 {fill:#A42926}
   ]]>
  </style>
 </defs>
 <g id="Layer_x0020_1">
  <metadata id="CorelCorpID_0Corel-Layer"/>
  <path class="fil0" d="M0.0278366 0.0200467l0.000226042 -0.000180764 0.000225694 -0.00018059 0.000180764 -0.000225868 0.000180764 -0.000225868 0.00018059 -0.000225868 9.0382e-005 -0.000270972 0.000135486 -0.00031625 4.51039e-005 -0.000271146 4.51039e-005 -0.000316076 4.52781e-005 -0.00031625 -4.52781e-005 -0.00018059 -4.51039e-005 -0.00018059 -9.0382e-005 -0.000180764 -0.000135486 -0.000135486 -0.000135486 -0.000135486 -0.000180764 -9.0382e-005 -0.00018059 -4.51039e-005 -0.000225868 -4.52781e-005 -0.00018059 4.52781e-005 -0.000180764 4.51039e-005 -0.00018059 9.0382e-005 -0.000180764 0.000135486 -9.02079e-005 0.000135486 -9.0382e-005 0.000180764 -9.05562e-005 0.00018059 0 0.00018059 -4.51039e-005 0.000226042 -4.51039e-005 0.00018059 -9.0382e-005 0.00018059 -0.000135486 0.000135486 -0.000135486 0.00013566 -0.000180764 9.0382e-005 -0.00018059 9.02079e-005 -0.000225868 0 -0.00018059 0 -0.000180764 -9.02079e-005 -0.000180764 -9.0382e-005 -0.000180416 -0.00013566 -9.0382e-005 -0.000135486 -9.05562e-005 -0.00018059 -9.02079e-005 -0.00018059 0 -0.000226042 -4.52781e-005 -0.00018059 -4.51039e-005 -0.00018059 -9.0382e-005 -0.000180764 -0.000135486 -0.000135486 -0.000135486 -0.000135486 -0.000180764 -9.0382e-005 -0.00018059 -4.51039e-005 -0.000225868 -4.52781e-005 -0.000180764 4.52781e-005 -0.00018059 4.51039e-005 -0.00018059 9.0382e-005 -0.000135486 0.000135486 -0.00013566 0.000135486 -9.0382e-005 0.000180764 -4.51039e-005 0.00018059 -4.52781e-005 0.00018059 0 0.00031625 4.52781e-005 0.000316076 9.0382e-005 0.000271146 9.0382e-005 0.00031625 0.000135486 0.000270972 0.00018059 0.000225868 0.000135486 0.000225868 0.000226042 0.000225868 0.000225694 0.00018059 0.000225868 0.000180764 0.000225868 0.00018059 0.000270972 9.0382e-005 0.000270972 0.00013566 0.00031625 4.51039e-005 0.000270972 4.51039e-005 0.00031625 4.51039e-005 0.000316076 -4.51039e-005 0.000316424 -4.51039e-005 0.000270972 -4.51039e-005 0.00031625 -0.00013566 0.000225694 -9.0382e-005 0.000270972 -0.00018059zm0.0138474 0.0173023l-0.0137978 -0.0353843 -0.00998974 -0.00196472 -0.0178965 0.037349 0.0416841 0zm-0.00258904 -0.00176933l-0.0362852 0 0.0160901 -0.0335791 0.00769101 0.00151264 0.0125041 0.0320665zm-0.0123423 -0.00875765l-0.000271146 0.00013566 -0.000225868 0.00018059 -0.00018059 0.000225868 -0.000135486 0.000271146 -9.05562e-005 0.000270798 -4.51039e-005 0.00031625 4.51039e-005 0.00031625 9.05562e-005 0.000270972 0.000135486 0.000271146 0.00018059 0.000225694 0.000225868 0.00018059 0.000271146 0.00013566 0.000270972 9.0382e-005 0.00031625 4.51039e-005 0.000316076 -4.51039e-005 0.000270972 -9.0382e-005 0.000271146 -0.00013566 0.000225694 -0.00018059 0.000180764 -0.000225694 0.000135486 -0.000271146 9.0382e-005 -0.000270972 4.51039e-005 -0.00031625 -4.51039e-005 -0.00031625 -9.0382e-005 -0.000270798 -0.000135486 -0.000271146 -0.000180764 -0.000225868 -0.000225694 -0.00018059 -0.000271146 -0.00013566 -0.000270972 -9.0382e-005 -0.000316076 -4.51039e-005 -0.00031625 4.51039e-005 -0.000270972 9.0382e-005zm-0.00686607 -0.00758843l0.00013566 -0.000225868 0.000135486 -0.000270972 9.0382e-005 -0.00031625 9.0382e-005 -0.000271146 4.51039e-005 -0.000316076 0 -0.00031625 0 -0.00018059 -9.0382e-005 -0.00018059 -9.02079e-005 -0.000180764 -9.0382e-005 -0.000135486 -0.000180764 -0.000135486 -0.00018059 -9.0382e-005 -0.000180764 -4.51039e-005 -0.00018059 -4.52781e-005 -0.000226042 4.52781e-005 -0.00018059 4.51039e-005 -0.00018059 9.0382e-005 -0.000135486 0.000135486 -0.00013566 0.000135486 -9.0382e-005 0.000180764 -4.51039e-005 0.00018059 -4.51039e-005 0.00018059 0 0.000226042 -4.52781e-005 0.00018059 -9.02079e-005 0.00018059 -0.000135486 0.000135486 -0.000180764 0.00013566 -0.000135486 9.0382e-005 -0.000225868 9.02079e-005 -0.00018059 0 -0.000226042 0 -0.00018059 -9.02079e-005 -0.00018059 -9.0382e-005 -0.00013566 -0.00013566 -0.000135486 -0.000135486 -9.0382e-005 -0.00018059 -4.51039e-005 -0.00018059 -4.51039e-005 -0.000226042 0 -0.00018059 -4.52781e-005 -0.00018059 -9.02079e-005 -0.000180764 -0.000135486 -0.000135486 -0.000180938 -0.000135486 -0.000135312 -9.0382e-005 -0.000225868 -4.51039e-005 -0.00018059 -4.52781e-005 -0.000226042 4.52781e-005 -0.00018059 4.51039e-005 -0.00018059 9.0382e-005 -0.00013566 0.000135486 -0.000135486 0.000135486 -9.0382e-005 0.000180764 -4.51039e-005 0.00018059 0 0.00018059 0 0.00031625 4.51039e-005 0.000316076 9.0382e-005 0.000271146 9.0382e-005 0.00031625 0.000135486 0.000270972 0.00013566 0.000225868 0.00018059 0.000225868 0.00018059 0.000225868 0.000226042 0.00018059 0.000225694 0.000180764 0.000270972 0.00018059 0.000271146 9.0382e-005 0.000270972 0.00013566 0.000270972 4.51039e-005 0.00031625 4.51039e-005 0.00031625 4.51039e-005 0.000316076 -4.51039e-005 0.000270972 -4.51039e-005 0.00031625 -4.51039e-005 0.000270972 -0.00013566 0.000271146 -9.0382e-005 0.000225694 -0.00018059 0.000271146 -0.000180764 0.000180764 -0.00018059 0.000225694 -0.000225868 0.00018059 -0.000225868z"/>
 </g>
</svg>
